Division,WeightClassKg,Place,Name,Team,BodyweightKg,Best3SquatKg,Best3BenchKg,Best3DeadliftKg,TotalKg,Equipment,Event,Sex,BirthDate
Boys,51.71,1,Halo Vazquez,Hillsboro,51.71,111.13,56.7,113.4,281.23,Unlimited,SBD,M,
Boys,51.71,2,Vicente Cuevas,Hillsboro,51.26,113.4,54.43,111.13,278.96,Unlimited,SBD,M,
Boys,51.71,3,Byron Pineda,Hillsboro,49.9,92.99,54.43,102.06,249.48,Unlimited,SBD,M,
Boys,51.71,4,Jacob Carpio,Bishop Lynch,50.89,92.99,54.43,102.06,249.48,Unlimited,SBD,M,
Boys,55.79,1,Andrew Santoyo,Rice,55.79,158.76,92.99,149.69,401.43,Unlimited,SBD,M,
Boys,55.79,2,Kyle Robinson,Hillsboro,55.34,138.35,102.06,158.76,399.16,Unlimited,SBD,M,
Boys,55.79,3,Miguel Pineda,Hillsboro,53.52,138.35,88.45,158.76,385.55,Unlimited,SBD,M,
Boys,55.79,4,Tyler Flower,Venus,53.16,129.27,92.99,156.49,378.75,Unlimited,SBD,M,
Boys,55.79,5,Adrian Martinez #19,Waco La Vega,55.61,133.81,70.31,156.49,360.61,Unlimited,SBD,M,
Boys,55.79,6,Will Saadeh,Willow Park Trinity Christian Academy,55.07,145.15,61.23,149.69,356.07,Unlimited,SBD,M,
Boys,55.79,7,Dylan Kelly,Willow Park Trinity Christian Academy,52.25,108.86,65.77,170.1,344.73,Unlimited,SBD,M,
Boys,55.79,8,Noah Greanead,Rio Vista,55.52,127.01,74.84,122.47,324.32,Unlimited,SBD,M,
Boys,55.79,9,John Matthews,Bishop Lynch,55.79,88.45,45.36,124.74,258.55,Unlimited,SBD,M,
Boys,59.87,1,Luis Fuentes,Hillsboro,58.51,206.38,108.86,190.51,505.76,Unlimited,SBD,M,
Boys,59.87,2,Nguyen Tran,Hillsboro,59.42,201.85,106.59,183.7,492.15,Unlimited,SBD,M,
Boys,67.13,1,Jahdiel Huerta,Rice,66.59,167.83,97.52,170.1,435.45,Unlimited,SBD,M,
Boys,67.13,2,Robert Parsons,Bishop Lynch,60.69,174.63,83.91,170.1,428.64,Unlimited,SBD,M,
Boys,67.13,3,Tucker Lewis,Blooming Grove,66,165.56,102.06,142.88,410.5,Unlimited,SBD,M,
Boys,67.13,4,Aidan Garza,Bishop Lynch,66.13,165.56,92.99,142.88,401.43,Unlimited,SBD,M,
Boys,67.13,5,Collin Quezner,Bishop Lynch,66.41,142.88,70.31,151.95,365.14,Unlimited,SBD,M,
Boys,67.13,6,Jacob Lovett,Blooming Grove,63.41,136.08,92.99,124.74,353.8,Unlimited,SBD,M,
Boys,67.13,7,Caleb Yadon,Rio Vista,64.77,129.27,83.91,115.67,328.85,Unlimited,SBD,M,
Boys,67.13,DQ,Aaron Hernandez,Venus,66.95,181.44,104.33,,,Unlimited,SBD,M,
Boys,74.84,1,Josh Lovett,Blooming Grove,74.21,226.8,133.81,206.38,566.99,Unlimited,SBD,M,
Boys,74.84,2,Jayden Jones,Bishop Lynch,73.75,181.44,102.06,204.12,487.61,Unlimited,SBD,M,
Boys,74.84,3,Trevor Clark,Hillsboro,72.57,165.56,102.06,165.56,433.18,Unlimited,SBD,M,
Boys,74.84,4,Pierson Fontane,Bishop Lynch,71.4,149.69,108.86,154.22,412.77,Unlimited,SBD,M,
Boys,74.84,5,Alan Caballero,Blooming Grove,67.4,156.49,92.99,161.03,410.5,Unlimited,SBD,M,
Boys,74.84,6,Bryan Zamudio,Hillsboro,74.39,154.22,97.52,149.69,401.43,Unlimited,SBD,M,
Boys,74.84,7,Luke Byrne,Willow Park Trinity Christian Academy,72.94,142.88,65.77,158.76,367.41,Unlimited,SBD,M,
Boys,74.84,DQ,Gage Hoag,Venus,71.94,165.56,,,,Unlimited,SBD,M,
Boys,82.1,1,Devin Hill,Waco La Vega,82.1,222.26,147.42,226.8,596.47,Unlimited,SBD,M,
Boys,82.1,2,Jaden Gross,Venus,82.1,215.46,149.69,215.46,580.6,Unlimited,SBD,M,
Boys,82.1,3,Alexis Perez,Venus,77.66,206.38,124.74,190.51,521.63,Unlimited,SBD,M,
Boys,82.1,4,Sandon Thompkins,Hillsboro,81.19,163.29,106.59,183.7,453.59,Unlimited,SBD,M,
Boys,82.1,5,Jude Rogers,Bishop Lynch,81.28,154.22,97.52,179.17,430.91,Unlimited,SBD,M,
Boys,82.1,6,Owen Coates,Willow Park Trinity Christian Academy,75.66,154.22,83.91,170.1,408.23,Unlimited,SBD,M,
Boys,82.1,DQ,Talon Isham,Blooming Grove,79.83,,,,,Unlimited,SBD,M,
Boys,89.81,1,Jeremiah Jones,Waco La Vega,89.63,260.82,156.49,217.72,635.03,Unlimited,SBD,M,
Boys,89.81,2,Corey Rawdon,Venus,87.91,210.92,136.08,226.8,573.79,Unlimited,SBD,M,
Boys,89.81,3,Saul Sanchez,Bishop Lynch,88.9,226.8,142.88,201.85,571.53,Unlimited,SBD,M,
Boys,89.81,4,Trenton Brooks,Hillsboro,86.64,192.78,129.27,219.99,542.04,Unlimited,SBD,M,
Boys,89.81,5,Ian Vicencio,Hillsboro,88.45,204.12,124.74,192.78,521.63,Unlimited,SBD,M,
Boys,89.81,6,Xenon Reyes,Hillsboro,89.81,188.24,115.67,188.24,492.15,Unlimited,SBD,M,
Boys,89.81,7,Max Ortega,Hillsboro,87.09,165.56,111.13,142.88,419.57,Unlimited,SBD,M,
Boys,89.81,8,Kyler Bankhead,Rio Vista,88.81,176.9,86.18,142.88,405.97,Unlimited,SBD,M,
Boys,89.81,9,Braxton Coffin,Rio Vista,87.63,149.69,79.38,129.27,358.34,Unlimited,SBD,M,
Boys,99.79,1,Noah Holt,Rio Vista,91.26,226.8,138.35,226.8,591.94,Unlimited,SBD,M,
Boys,99.79,2,Marcus Jackson,Waco La Vega,91.08,188.24,149.69,192.78,530.7,Unlimited,SBD,M,
Boys,99.79,3,Hillario Mata,Waco La Vega,95.89,199.58,120.2,197.31,517.1,Unlimited,SBD,M,
Boys,99.79,4,Max Johnson,Willow Park Trinity Christian Academy,99.7,206.38,102.06,201.85,510.29,Unlimited,SBD,M,
Boys,99.79,DQ,Cade Balch,Waco La Vega,98.97,,,,,Unlimited,SBD,M,
Boys,109.77,1,Esequiel Castro,Waco La Vega,107.95,217.72,142.88,213.19,573.79,Unlimited,SBD,M,
Boys,109.77,2,Anthony Zepeda,Rio Vista,106.68,226.8,124.74,204.12,555.65,Unlimited,SBD,M,
Boys,109.77,3,Adan Fernandez,Bishop Lynch,109.41,190.51,124.74,192.78,508.02,Unlimited,SBD,M,
Boys,109.77,4,Michael Bryant,Waco La Vega,108.14,204.12,117.93,170.1,492.15,Unlimited,SBD,M,
Boys,109.77,5,Anthony Arzola,Venus,104.33,165.56,108.86,204.12,478.54,Unlimited,SBD,M,
Boys,109.77,6,Anthony Rivas,Rio Vista,101.06,195.04,108.86,156.49,460.4,Unlimited,SBD,M,
Boys,109.77,DQ,Nick Holt,Rio Vista,106.41,263.08,,,,Unlimited,SBD,M,
Boys,109.77,DQ,Rhyder Dawson,Willow Park Trinity Christian Academy,100.88,133.81,111.13,,,Unlimited,SBD,M,
Boys,124.74,1,Pablo Rodriguez,Waco La Vega,123.47,249.48,174.63,190.51,614.62,Unlimited,SBD,M,
Boys,124.74,2,Xavier Cook,Hillsboro,118.84,222.26,104.33,192.78,519.36,Unlimited,SBD,M,
Boys,124.74,3,Hamilton Walker,Bishop Lynch,120.2,199.58,124.74,181.44,505.76,Unlimited,SBD,M,
Boys,124.74,4,Zaith Gonzalez,Waco La Vega,118.93,204.12,120.2,174.63,498.95,Unlimited,SBD,M,
Boys,124.74,5,Jose Cuellar,Rio Vista,113.58,201.85,106.59,165.56,474,Unlimited,SBD,M,
Boys,124.74,6,Luke Sims,Willow Park Trinity Christian Academy,124.74,179.17,97.52,183.7,460.4,Unlimited,SBD,M,
Boys,139.71,1,Eythan Thompson,Waco La Vega,137.89,322.05,210.92,267.62,800.59,Unlimited,SBD,M,
Boys,139.71,2,Luis Perez #19,Hillsboro,126.55,251.74,147.42,183.7,582.87,Unlimited,SBD,M,
Boys,139.71+,1,Jha'quavion Johnson,Waco La Vega,152.13,260.82,161.03,226.8,648.64,Unlimited,SBD,M,
Boys,139.71+,2,Dominic Lara,Hillsboro,155.58,260.82,149.69,199.58,610.08,Unlimited,SBD,M,
Boys,139.71+,DQ,Carter Boyd,Rio Vista,142.52,,,,,Unlimited,SBD,M,
Boys,139.71+,DQ,Xzavier Garcia,Venus,144.33,,,,,Unlimited,SBD,M,
Boys,,NS,Joel Calel,Blooming Grove,,,,,,Unlimited,SBD,M,
