Division,WeightClassKg,Place,Name,Team,BodyweightKg,Best3SquatKg,Best3BenchKg,Best3DeadliftKg,TotalKg,Equipment,Event,Sex,BirthDate
Boys,51.71,1,Kiyoshi Shellhammer,Buda Hays,51.07,104.33,63.5,142.88,310.71,Unlimited,SBD,M,
Boys,51.71,2,Gavin Meuse,Liberty Hill,50.8,124.74,70.31,111.13,306.17,Unlimited,SBD,M,
Boys,51.71,3,Stetson Mouser,Smithville,48.99,97.52,61.23,111.13,269.89,Unlimited,SBD,M,
Boys,51.71,4,Dylan Silvert,Buda Johnson,51.62,104.33,61.23,104.33,269.89,Unlimited,SBD,M,
Boys,51.71,5,Travis Steubing,Smithville,49.35,92.99,54.43,106.59,254.01,Unlimited,SBD,M,
Boys,51.71,6,Ray Martinez,Buda Hays,51.17,97.52,52.16,92.99,242.67,Unlimited,SBD,M,
Boys,51.71,7,David Hernandez,Smithville,48.08,79.38,49.9,83.91,213.19,Unlimited,SBD,M,
Boys,51.71,8,Wesley Denning,Lago Vista,51.03,61.23,36.29,74.84,172.37,Unlimited,SBD,M,
Boys,55.79,1,Shaheed Rector,Pflugerville,54.79,179.17,108.86,167.83,455.86,Unlimited,SBD,M,
Boys,55.79,2,A Phi Le,Pflugerville,53.16,172.37,99.79,165.56,437.72,Unlimited,SBD,M,
Boys,55.79,3,Jayden Malone,Liberty Hill,55.25,170.1,90.72,167.83,428.64,Unlimited,SBD,M,
Boys,55.79,4,Raymond Guerra,Del Valle,55.25,124.74,79.38,145.15,349.27,Unlimited,SBD,M,
Boys,55.79,5,Malakai Jimenez,Del Valle,54.25,122.47,72.57,140.61,335.66,Unlimited,SBD,M,
Boys,55.79,6,Karson Kelnar,Buda Hays,55.43,124.74,65.77,124.74,315.25,Unlimited,SBD,M,
Boys,55.79,7,Tristan Espinoza,Pflugerville Hendrickson,53.8,120.2,68.04,124.74,312.98,Unlimited,SBD,M,
Boys,55.79,8,Jakolby Brown,Hutto,52.98,90.72,43.09,113.4,247.21,Unlimited,SBD,M,
Boys,55.79,DQ,Daniel Gallegos,Austin Navarro Early College,54.98,70.31,,,,Unlimited,SBD,M,
Boys,59.87,1,David Hamilton,Buda Johnson,56.15,192.78,111.13,183.7,487.61,Unlimited,SBD,M,
Boys,59.87,2,Jose Vences,Austin Lake Travis,59.6,147.42,106.59,165.56,419.57,Unlimited,SBD,M,
Boys,59.87,3,Asher Kamenicky,Pflugerville Hendrickson,59.24,129.27,102.06,167.83,399.16,Unlimited,SBD,M,
Boys,59.87,4,Eric Ontiveros,Liberty Hill,58.06,136.08,88.45,163.29,387.82,Unlimited,SBD,M,
Boys,59.87,5,Reginald Ward,Pflugerville Hendrickson,59.24,147.42,74.84,161.03,383.29,Unlimited,SBD,M,
Boys,59.87,6,Sadaqat Iman Ud Din,Austin Navarro Early College,59.15,124.74,88.45,161.03,374.21,Unlimited,SBD,M,
Boys,59.87,7,James Lee,Pflugerville Hendrickson,58.51,129.27,92.99,142.88,365.14,Unlimited,SBD,M,
Boys,59.87,8,Sam Tapia,Buda Hays,59.87,142.88,79.38,142.88,365.14,Unlimited,SBD,M,
Boys,59.87,9,Mathew Chen,Bastrop Cedar Creek,59.69,117.93,74.84,136.08,328.85,Unlimited,SBD,M,
Boys,59.87,10,Irabel Avila,Austin Navarro Early College,56.88,117.93,79.38,129.27,326.59,Unlimited,SBD,M,
Boys,59.87,11,Landen Kallfelz,Buda Hays,59.33,102.06,70.31,138.35,310.71,Unlimited,SBD,M,
Boys,59.87,12,Ryan Moncada,Austin Navarro Early College,56.61,81.65,49.9,106.59,238.14,Unlimited,SBD,M,
Boys,67.13,1,Amos Sizer,Lago Vista,66.41,183.7,104.33,170.1,458.13,Unlimited,SBD,M,
Boys,67.13,2,Adan Velasquez,Del Valle,65.14,136.08,95.25,199.58,430.91,Unlimited,SBD,M,
Boys,67.13,3,Joshua Constancio,Del Valle,66.13,163.29,97.52,163.29,424.11,Unlimited,SBD,M,
Boys,67.13,4,Christian Osorio,Smithville,63.23,167.83,83.91,170.1,421.84,Unlimited,SBD,M,
Boys,67.13,5,Christopher Martinez,Liberty Hill,63.87,151.95,115.67,154.22,421.84,Unlimited,SBD,M,
Boys,67.13,6,Zachary Nolan,Liberty Hill,66.22,163.29,88.45,170.1,421.84,Unlimited,SBD,M,
Boys,67.13,7,Zander Bevers,Buda Johnson,66.5,163.29,102.06,156.49,421.84,Unlimited,SBD,M,
Boys,67.13,8,Jake Murphy,Austin Lake Travis,63.23,151.95,92.99,163.29,408.23,Unlimited,SBD,M,
Boys,67.13,9,Jack Vashaw,Austin Lake Travis,67.04,163.29,86.18,142.88,392.36,Unlimited,SBD,M,
Boys,67.13,10,Noah Nelson,Lago Vista,64.59,124.74,79.38,136.08,340.19,Unlimited,SBD,M,
Boys,67.13,11,Cameron Morris,Smithville,60.06,127.01,77.11,129.27,333.39,Unlimited,SBD,M,
Boys,67.13,12,Ashton Carpenter,Lago Vista,60.69,138.35,72.57,122.47,333.39,Unlimited,SBD,M,
Boys,67.13,13,Braxton Smith,Pflugerville,62.32,102.06,70.31,124.74,297.1,Unlimited,SBD,M,
Boys,67.13,14,Jose Torres,Bastrop Cedar Creek,61.69,97.52,70.31,108.86,276.69,Unlimited,SBD,M,
Boys,67.13,15,Antonio Lopez,Austin Navarro Early College,60.78,70.31,47.63,102.06,219.99,Unlimited,SBD,M,
Boys,74.84,1,Deigo Salinas,Bastrop Cedar Creek,73.12,197.31,108.86,210.92,517.1,Unlimited,SBD,M,
Boys,74.84,2,Evan Neilson,Liberty Hill,73.3,210.92,97.52,206.38,514.83,Unlimited,SBD,M,
Boys,74.84,3,Axel Guel,Austin Lake Travis,73.84,170.1,108.86,215.46,494.42,Unlimited,SBD,M,
Boys,74.84,4,Matt Littlefield,Buda Johnson,70.31,183.7,113.4,183.7,480.81,Unlimited,SBD,M,
Boys,74.84,5,Edo Edo,Pflugerville,74.84,188.24,99.79,192.78,480.81,Unlimited,SBD,M,
Boys,74.84,6,Jy'Aire Gobar,Hutto,70.31,163.29,104.33,190.51,458.13,Unlimited,SBD,M,
Boys,74.84,7,Lucas Yull,Buda Hays,72.03,165.56,111.13,165.56,442.25,Unlimited,SBD,M,
Boys,74.84,8,Jarod Crouch,Buda Hays,70.49,161.03,102.06,154.22,417.3,Unlimited,SBD,M,
Boys,74.84,9,Kelton Workman,Buda Hays,73.12,142.88,102.06,165.56,410.5,Unlimited,SBD,M,
Boys,74.84,10,Aiden Evans,Smithville,73.66,151.95,92.99,161.03,405.97,Unlimited,SBD,M,
Boys,74.84,11,Matthew Jimenez,Pflugerville Hendrickson,69.94,147.42,97.52,158.76,403.7,Unlimited,SBD,M,
Boys,74.84,12,Nic Cones,Austin Lake Travis,68.49,133.81,97.52,161.03,392.36,Unlimited,SBD,M,
Boys,74.84,13,Stylz Ogden,Buda Johnson,68.22,138.35,97.52,147.42,383.29,Unlimited,SBD,M,
Boys,74.84,14,Isaiha Cancino,Bastrop Cedar Creek,71.58,151.95,88.45,142.88,383.29,Unlimited,SBD,M,
Boys,74.84,15,Ty Salda,Liberty Hill,70.4,142.88,83.91,142.88,369.68,Unlimited,SBD,M,
Boys,74.84,16,Enrique Olan,Del Valle,68.76,136.08,77.11,154.22,367.41,Unlimited,SBD,M,
Boys,74.84,17,Brody McAnnelly,Buda Johnson,74.84,122.47,83.91,145.15,351.53,Unlimited,SBD,M,
Boys,74.84,18,Ethan Myers,Bastrop Cedar Creek,70.94,129.27,83.91,131.54,344.73,Unlimited,SBD,M,
Boys,74.84,19,Luis Casas,Austin Navarro Early College,72.3,95.25,63.5,136.08,294.84,Unlimited,SBD,M,
Boys,74.84,DQ,Alfonso Valles,Buda Johnson,74.3,151.95,83.91,,,Unlimited,SBD,M,
Boys,82.1,1,Bradley Gonzales,Buda Johnson,80.47,219.99,140.61,224.53,585.13,Unlimited,SBD,M,
Boys,82.1,2,Vaunzhe Young,Pflugerville,82.01,213.19,124.74,233.6,571.53,Unlimited,SBD,M,
Boys,82.1,3,Luke Grumbles,Buda Johnson,77.2,158.76,120.2,190.51,469.47,Unlimited,SBD,M,
Boys,82.1,4,Angel Samaripa,Austin Navarro Early College,80.01,158.76,97.52,185.97,442.25,Unlimited,SBD,M,
Boys,82.1,5,Paul Alvarado,Buda Hays,76.84,147.42,97.52,185.97,430.91,Unlimited,SBD,M,
Boys,82.1,6,Conor Burleson,Smithville,75.11,161.03,92.99,172.37,426.38,Unlimited,SBD,M,
Boys,82.1,7,Ethan Arndt,Pflugerville Hendrickson,76.75,158.76,97.52,165.56,421.84,Unlimited,SBD,M,
Boys,82.1,8,Robbie Belmarez,Austin Lake Travis,75.75,142.88,102.06,161.03,405.97,Unlimited,SBD,M,
Boys,82.1,9,Carnell Spicer,Pflugerville Hendrickson,75.84,142.88,88.45,167.83,399.16,Unlimited,SBD,M,
Boys,82.1,10,Beckham Press,Lago Vista,78.56,149.69,95.25,149.69,394.63,Unlimited,SBD,M,
Boys,82.1,11,Nathaniel Oziran,Liberty Hill,80.2,142.88,86.18,158.76,387.82,Unlimited,SBD,M,
Boys,82.1,12,Tyler Stubblefield,Bastrop Cedar Creek,76.38,124.74,88.45,136.08,349.27,Unlimited,SBD,M,
Boys,82.1,13,Cesar Sandoval,Bastrop Cedar Creek,77.2,127.01,65.77,136.08,328.85,Unlimited,SBD,M,
Boys,82.1,14,Carter Natal,Smithville,76.93,92.99,70.31,142.88,306.17,Unlimited,SBD,M,
Boys,82.1,DQ,Hines Jaxson,Liberty Hill,78.93,197.31,115.67,,,Unlimited,SBD,M,
Boys,89.81,1,Dominic Garcia,Lago Vista,84.28,231.33,102.06,244.94,578.33,Unlimited,SBD,M,
Boys,89.81,2,Logan Morris,Pflugerville Hendrickson,85.82,206.38,136.08,174.63,517.1,Unlimited,SBD,M,
Boys,89.81,3,Victor Arredondo-Obeso,Bastrop Cedar Creek,83.19,208.65,120.2,185.97,514.83,Unlimited,SBD,M,
Boys,89.81,4,Donovan Wright,Pflugerville,86.64,197.31,106.59,201.85,505.76,Unlimited,SBD,M,
Boys,89.81,5,Marcus Hernandez,Buda Hays,89.72,190.51,108.86,190.51,489.88,Unlimited,SBD,M,
Boys,89.81,6,Christian Longoria,Del Valle,89.81,183.7,106.59,185.97,476.27,Unlimited,SBD,M,
Boys,89.81,7,Diego Segura,Austin Lake Travis,87.63,156.49,113.4,185.97,455.86,Unlimited,SBD,M,
Boys,89.81,8,Ariel Jaimes-Vallejo,Del Valle,84.82,151.95,113.4,188.24,453.59,Unlimited,SBD,M,
Boys,89.81,9,Rafael Castalan,Austin Navarro Early College,88.18,172.37,86.18,190.51,449.06,Unlimited,SBD,M,
Boys,89.81,10,Romeo Benitez Perez,Del Valle,85.64,158.76,102.06,158.76,419.57,Unlimited,SBD,M,
Boys,89.81,11,Stihl Gartman,Smithville,84.91,154.22,88.45,167.83,410.5,Unlimited,SBD,M,
Boys,89.81,12,Jacob Crosby,Buda Hays,87.18,158.76,99.79,151.95,410.5,Unlimited,SBD,M,
Boys,99.79,1,Brett Aranchado,Pflugerville,94.89,215.46,147.42,192.78,555.65,Unlimited,SBD,M,
Boys,99.79,2,Wilmer McDermoth,Pflugerville,93.35,204.12,115.67,215.46,535.24,Unlimited,SBD,M,
Boys,99.79,3,Kaden Patrick,Hutto,97.52,192.78,117.93,197.31,508.02,Unlimited,SBD,M,
Boys,99.79,4,Francklin Gonzalez,Austin Navarro Early College,95.62,190.51,106.59,192.78,489.88,Unlimited,SBD,M,
Boys,99.79,5,Joe Soto,Smithville,89.99,167.83,113.4,183.7,464.93,Unlimited,SBD,M,
Boys,99.79,6,Noah Cruz,Pflugerville,90.17,163.29,97.52,197.31,458.13,Unlimited,SBD,M,
Boys,99.79,7,Graydon Burke,Lago Vista,90.72,142.88,115.67,158.76,417.3,Unlimited,SBD,M,
Boys,99.79,8,Grayson Zuma,Buda Johnson,95.53,161.03,86.18,158.76,405.97,Unlimited,SBD,M,
Boys,99.79,9,Rodrigo Guajardo,Del Valle,92.35,138.35,92.99,142.88,374.21,Unlimited,SBD,M,
Boys,99.79,10,Nikalias Cantu,Austin Navarro Early College,90.26,122.47,54.43,142.88,319.78,Unlimited,SBD,M,
Boys,99.79,11,Leonardo Gonzalez,Bastrop Cedar Creek,92.26,83.91,68.04,129.27,281.23,Unlimited,SBD,M,
Boys,99.79,12,Jonathan Vasquez,Austin Navarro Early College,91.9,86.18,68.04,86.18,240.4,Unlimited,SBD,M,
Boys,109.77,1,Darwin Portillo,Austin Navarro Early College,104.78,235.87,136.08,240.4,612.35,Unlimited,SBD,M,
Boys,109.77,2,Cedric Gould,Liberty Hill,107.5,226.8,138.35,197.31,562.45,Unlimited,SBD,M,
Boys,109.77,3,Chase Medrano,Austin Lake Travis,105.05,183.7,131.54,183.7,498.95,Unlimited,SBD,M,
Boys,109.77,4,Jett Harrison,Liberty Hill,101.79,183.7,129.27,174.63,487.61,Unlimited,SBD,M,
Boys,109.77,5,Xavian Ibarra,Hutto,107.95,199.58,90.72,161.03,451.32,Unlimited,SBD,M,
Boys,109.77,6,Cody Trammel,Bastrop Cedar Creek,100.43,158.76,99.79,172.37,430.91,Unlimited,SBD,M,
Boys,109.77,7,Christopher Ocegueda,Austin Navarro Early College,107.41,104.33,65.77,133.81,303.91,Unlimited,SBD,M,
Boys,124.74,1,Hector Arredondo-Obeso,Bastrop Cedar Creek,111.58,240.4,149.69,249.48,639.57,Unlimited,SBD,M,
Boys,124.74,2,Juan Barrueta,Del Valle,117.12,281.23,142.88,208.65,632.76,Unlimited,SBD,M,
Boys,124.74,3,Jacobi Simmons,Austin Navarro Early College,114.21,226.8,151.95,219.99,598.74,Unlimited,SBD,M,
Boys,124.74,4,Luka Matamoros,Pflugerville Hendrickson,112.31,192.78,136.08,235.87,564.72,Unlimited,SBD,M,
Boys,124.74,5,Kolton New,Liberty Hill,119.84,204.12,133.81,183.7,521.63,Unlimited,SBD,M,
Boys,124.74,6,Nathan Arrieta,Lago Vista,118.84,190.51,108.86,181.44,480.81,Unlimited,SBD,M,
Boys,124.74,7,Najm Aldoori,Pflugerville,120.38,190.51,115.67,174.63,480.81,Unlimited,SBD,M,
Boys,124.74,8,Brady Strickland,Hutto,109.95,167.83,104.33,195.04,467.2,Unlimited,SBD,M,
Boys,124.74,9,Jarvis Robinson,Hutto,119.2,145.15,92.99,172.37,410.5,Unlimited,SBD,M,
Boys,124.74,10,Gustavo Villalobos,Hutto,110.4,92.99,63.5,154.22,310.71,Unlimited,SBD,M,
Boys,124.74,DQ,Nathan Rodriguez,Buda Hays,122.2,,,,,Unlimited,SBD,M,
Boys,139.71,1,Jackson Harrison,Liberty Hill,130.73,281.23,161.03,240.4,682.66,Unlimited,SBD,M,
Boys,139.71,2,Rafael Medina,Lago Vista,135.17,254.01,142.88,199.58,596.47,Unlimited,SBD,M,
Boys,139.71,3,Jacob Hoffer,Pflugerville,139.43,215.46,142.88,190.51,548.85,Unlimited,SBD,M,
Boys,139.71,4,Lance Jaramillo,Bastrop Cedar Creek,132.45,151.95,77.11,158.76,387.82,Unlimited,SBD,M,
Boys,139.71+,1,Davin Zurovetz,Lago Vista,140.16,260.82,158.76,238.14,657.71,Unlimited,SBD,M,
Boys,139.71+,2,Jay Simmons,Pflugerville Hendrickson,160.75,192.78,170.1,192.78,555.65,Unlimited,SBD,M,
Boys,139.71+,3,Francisco Epinosa,Pflugerville Hendrickson,148.96,183.7,147.42,188.24,519.36,Unlimited,SBD,M,
Boys,139.71+,4,Alex Guerrero,Del Valle,141.34,154.22,108.86,163.29,426.38,Unlimited,SBD,M,
