Division,WeightClassKg,Place,Name,Team,BodyweightKg,Best3SquatKg,Best3BenchKg,Best3DeadliftKg,TotalKg,Equipment,Event,Sex,BirthDate
Boys,51.71,1,Miguel Juarez,Rosebud-Lott,51.53,104.33,70.31,142.88,317.51,Unlimited,SBD,M,
Boys,51.71,2,Aiden Cruz,Rosebud-Lott,47.85,111.13,68.04,127.01,306.17,Unlimited,SBD,M,
Boys,51.71,3,Jonny Cartwright,Rosebud-Lott,46.08,92.99,70.31,117.93,281.23,Unlimited,SBD,M,
Boys,51.71,4,Travis Mclellan,Riesel,50.53,117.93,54.43,99.79,272.16,Unlimited,SBD,M,
Boys,51.71,NS,Cesar Ramos,Meridian,,,,,,Unlimited,SBD,M,
Boys,51.71,NS,Jose Garcia,Meridian,,,,,,Unlimited,SBD,M,
Boys,51.71,NS,Ryan Weatherby,Hubbard,,,,,,Unlimited,SBD,M,
Boys,55.79,1,Tim Kruger,Rosebud-Lott,55.66,147.42,99.79,145.15,392.36,Unlimited,SBD,M,
Boys,55.79,2,Fidensio Salazar,Thrall,54.43,111.13,77.11,120.2,308.44,Unlimited,SBD,M,
Boys,55.79,3,Phillip Eddins,Bruceville-Eddy,55.16,99.79,74.84,124.74,299.37,Unlimited,SBD,M,
Boys,59.87,1,Sam Battles,Milano,59.87,133.81,102.06,163.29,399.16,Unlimited,SBD,M,
Boys,59.87,2,Lawson Symank,West,59.33,129.27,81.65,158.76,369.68,Unlimited,SBD,M,
Boys,59.87,3,Jd Chambers,Milano,59.87,129.27,90.72,138.35,358.34,Unlimited,SBD,M,
Boys,59.87,4,Cristian Ramirez-Vega,Bartlett,58.42,113.4,68.04,113.4,294.84,Unlimited,SBD,M,
Boys,59.87,DQ,Hayden Cummings,Meridian,57.7,113.4,,138.35,,Unlimited,SBD,M,
Boys,59.87,DQ,Zachery Smith,Meridian,57.33,106.59,,113.4,,Unlimited,SBD,M,
Boys,59.87,NS,Cooper Arthur,Meridian,,,,,,Unlimited,SBD,M,
Boys,59.87,NS,Colt Vance,Thorndale,,,,,,Unlimited,SBD,M,
Boys,67.13,1,Daniel Rincon,Rosebud-Lott,67.09,217.72,127.01,183.7,528.44,Unlimited,SBD,M,
Boys,67.13,2,Nick Munoz,West,63.5,176.9,124.74,183.7,485.34,Unlimited,SBD,M,
Boys,67.13,3,Teague Arlitt,Axtell,67.04,181.44,106.59,185.97,474,Unlimited,SBD,M,
Boys,67.13,4,Tyler Collier,Milano,66.32,158.76,142.88,167.83,469.47,Unlimited,SBD,M,
Boys,67.13,5,Jason Macik,West,66.04,183.7,104.33,170.1,458.13,Unlimited,SBD,M,
Boys,67.13,6,Tamarion Travis,Rosebud-Lott,66.36,170.1,88.45,174.63,433.18,Unlimited,SBD,M,
Boys,67.13,7,Jaxon Salazar,Rosebud-Lott,66.59,142.88,92.99,170.1,405.97,Unlimited,SBD,M,
Boys,67.13,8,Jett Frei,Thorndale,63.23,163.29,79.38,158.76,401.43,Unlimited,SBD,M,
Boys,67.13,9,Bruce Kent,West,67.13,136.08,86.18,142.88,365.14,Unlimited,SBD,M,
Boys,67.13,10,Adalberto Rodriguez,Bruceville-Eddy,67.13,129.27,90.72,142.88,362.87,Unlimited,SBD,M,
Boys,67.13,11,Kaden Yakesch,Milano,62.23,124.74,83.91,151.95,360.61,Unlimited,SBD,M,
Boys,67.13,12,Angel Rodriguez,Rosebud-Lott,65.82,136.08,72.57,129.27,337.93,Unlimited,SBD,M,
Boys,67.13,13,Devin Burns,Rosebud-Lott,65.91,129.27,74.84,131.54,335.66,Unlimited,SBD,M,
Boys,67.13,14,Zachary Swanson,Moody,64.77,124.74,72.57,129.27,326.59,Unlimited,SBD,M,
Boys,67.13,15,Josue Ramirez,Bartlett,66.59,133.81,61.23,122.47,317.51,Unlimited,SBD,M,
Boys,67.13,16,Spencer Meyer,Moody,62.41,115.67,72.57,120.2,308.44,Unlimited,SBD,M,
Boys,67.13,17,Alex Perez,Bartlett,66.22,115.67,74.84,115.67,306.17,Unlimited,SBD,M,
Boys,67.13,18,Landon Widmer,Thrall,63.68,120.2,61.23,120.2,301.64,Unlimited,SBD,M,
Boys,67.13,19,Michaul Salinas,Bruceville-Eddy,66.68,102.06,61.23,124.74,288.03,Unlimited,SBD,M,
Boys,67.13,20,Robert Olivarez,Bosqueville,61.23,68.04,61.23,99.79,229.06,Unlimited,SBD,M,
Boys,67.13,21,Jax Paro,Thrall,61.51,117.93,61.23,,179.17,Unlimited,SB,M,
Boys,67.13,DQ,Matthew Mokry,Thrall,61.51,79.38,,92.99,,Unlimited,SBD,M,
Boys,67.13,DQ,Jhon Mendoza,Axtell,64.59,,,,,Unlimited,SBD,M,
Boys,67.13,NS,Briggs Casner,Thorndale,,,,,,Unlimited,SBD,M,
Boys,74.84,1,Marcus Shaw,Thorndale,74.3,197.31,131.54,185.97,514.83,Unlimited,SBD,M,
Boys,74.84,2,Collin Conner,Riesel,67.22,197.31,99.79,199.58,496.68,Unlimited,SBD,M,
Boys,74.84,3,Marion Perez,West,74.57,185.97,127.01,174.63,487.61,Unlimited,SBD,M,
Boys,74.84,4,Derrick Gillham,Axtell,73.94,158.76,142.88,154.22,455.86,Unlimited,SBD,M,
Boys,74.84,5,Grady Ballard,Thorndale,73.03,158.76,113.4,170.1,442.25,Unlimited,SBD,M,
Boys,74.84,6,Brayden Hill,Riesel,71.3,145.15,106.59,172.37,424.11,Unlimited,SBD,M,
Boys,74.84,7,Bryson Hughes,Milano,67.86,151.95,95.25,156.49,403.7,Unlimited,SBD,M,
Boys,74.84,8,Phill Sims,Riesel,70.58,147.42,102.06,154.22,403.7,Unlimited,SBD,M,
Boys,74.84,9,Sam Clark,Thrall,69.49,131.54,102.06,165.56,399.16,Unlimited,SBD,M,
Boys,74.84,10,Cody Avant,Rosebud-Lott,73.48,151.95,81.65,156.49,390.09,Unlimited,SBD,M,
Boys,74.84,11,Gabe Perez,West,74.84,147.42,86.18,142.88,376.48,Unlimited,SBD,M,
Boys,74.84,12,Dax Ochoa,Riesel,68.31,140.61,90.72,142.88,374.21,Unlimited,SBD,M,
Boys,74.84,13,Tucker Bowen,Moody,69.58,124.74,72.57,140.61,337.93,Unlimited,SBD,M,
Boys,74.84,14,Kasen Carlile,Hubbard,69.4,99.79,61.23,117.93,278.96,Unlimited,SBD,M,
Boys,74.84,15,Riley Myers,Bruceville-Eddy,74.3,90.72,61.23,117.93,269.89,Unlimited,SBD,M,
Boys,74.84,16,Gavin Myers,Bruceville-Eddy,67.77,90.72,52.16,102.06,244.94,Unlimited,SBD,M,
Boys,74.84,NS,Jamal Gillon,Bartlett,,,,,,Unlimited,SBD,M,
Boys,74.84,NS,Dustin Padgett,Meridian,,,,,,Unlimited,SBD,M,
Boys,74.84,NS,Troy Arlitt,Axtell,,,,,,Unlimited,SBD,M,
Boys,74.84,NS,Tanner McAninch,Axtell,,,,,,Unlimited,SBD,M,
Boys,74.84,DQ,Luciano Legon,Thorndale,74.03,190.51,113.4,,,Unlimited,SBD,M,
Boys,82.1,1,Gerald Dykes,Milano,80.38,226.8,145.15,233.6,605.55,Unlimited,SBD,M,
Boys,82.1,2,Hugo Costilla,Rosebud-Lott,78.56,204.12,122.47,204.12,530.7,Unlimited,SBD,M,
Boys,82.1,3,Jacob Beardsley,Thorndale,76.11,199.58,131.54,183.7,514.83,Unlimited,SBD,M,
Boys,82.1,4,Brody Buchanan,West,79.47,192.78,111.13,210.92,514.83,Unlimited,SBD,M,
Boys,82.1,5,Aiden Rideout,West,81.56,192.78,120.2,190.51,503.49,Unlimited,SBD,M,
Boys,82.1,6,Jesse Hernandez,Axtell,76.38,195.04,131.54,165.56,492.15,Unlimited,SBD,M,
Boys,82.1,7,Ezekiel Mabry,Meridian,79.11,183.7,108.86,192.78,485.34,Unlimited,SBD,M,
Boys,82.1,8,Peyton Steinbecker,Milano,79.47,176.9,102.06,174.63,453.59,Unlimited,SBD,M,
Boys,82.1,9,Irving Vences,Bartlett,82.1,181.44,79.38,192.78,453.59,Unlimited,SBD,M,
Boys,82.1,10,David Willis,West,81.1,170.1,111.13,158.76,439.98,Unlimited,SBD,M,
Boys,82.1,11,Kaden Dickens,Thrall,81.56,138.35,102.06,185.97,426.38,Unlimited,SBD,M,
Boys,82.1,12,Sladen Shaeffer,Bosqueville,79.29,154.22,99.79,170.1,424.11,Unlimited,SBD,M,
Boys,82.1,13,Dakota Konarsky,Thrall,81.92,154.22,95.25,172.37,421.84,Unlimited,SBD,M,
Boys,82.1,14,Nate Kerfoot,Thorndale,75.39,151.95,86.18,174.63,412.77,Unlimited,SBD,M,
Boys,82.1,15,Levi Randig,Thrall,82.1,138.35,111.13,151.95,401.43,Unlimited,SBD,M,
Boys,82.1,16,Devon Eakin,Meridian,81.47,145.15,97.52,154.22,396.89,Unlimited,SBD,M,
Boys,82.1,17,Fabian Gutierrez,Bosqueville,77.47,133.81,79.38,142.88,356.07,Unlimited,SBD,M,
Boys,82.1,18,Ryan Sanchez,Thorndale,79.38,113.4,90.72,124.74,328.85,Unlimited,SBD,M,
Boys,82.1,19,Levi Cooley,Riesel,75.02,115.67,68.04,138.35,322.05,Unlimited,SBD,M,
Boys,82.1,20,Travis Lopez,Bruceville-Eddy,80.74,102.06,70.31,147.42,319.78,Unlimited,SBD,M,
Boys,82.1,21,Brody Villagomez,Bruceville-Eddy,75.66,129.27,61.23,111.13,301.64,Unlimited,SBD,M,
Boys,82.1,DQ,Dylan Brown,Bartlett,81.19,,74.84,174.63,,Unlimited,SBD,M,
Boys,82.1,DQ,Chase Fowler,Hubbard,80.74,,,,,Unlimited,SBD,M,
Boys,82.1,NS,Jackson White,Bosqueville,,,,,,Unlimited,SBD,M,
Boys,82.1,NS,Jimmy Lawson,Axtell,,,,,,Unlimited,SBD,M,
Boys,82.1,NS,Zachary Ferguson,Axtell,,,,,,Unlimited,SBD,M,
Boys,89.81,1,Andres Ruelas,Milano,89.72,272.16,167.83,213.19,653.17,Unlimited,SBD,M,
Boys,89.81,2,Noah Reyes,Axtell,89.81,204.12,120.2,210.92,535.24,Unlimited,SBD,M,
Boys,89.81,3,Troy Montoya,Milano,89.36,213.19,136.08,183.7,532.97,Unlimited,SBD,M,
Boys,89.81,4,Logan Tays,Rosebud-Lott,84.41,204.12,120.2,197.31,521.63,Unlimited,SBD,M,
Boys,89.81,5,Luke Badgett,Axtell,87.09,183.7,129.27,188.24,501.22,Unlimited,SBD,M,
Boys,89.81,6,Alejandro Estrada,Thrall,85.37,167.83,106.59,172.37,446.79,Unlimited,SBD,M,
Boys,89.81,7,Jaydin Hicks,Moody,89.81,181.44,90.72,174.63,446.79,Unlimited,SBD,M,
Boys,89.81,8,Trey Gail,Bruceville-Eddy,87.54,161.03,83.91,188.24,433.18,Unlimited,SBD,M,
Boys,89.81,9,Hernan Renteria,Bruceville-Eddy,88.63,106.59,83.91,124.74,315.25,Unlimited,SBD,M,
Boys,89.81,10,Brayden Evans,Rosebud-Lott,86.68,102.06,61.23,115.67,278.96,Unlimited,SBD,M,
Boys,89.81,DQ,Tajarmin Horne,Bruceville-Eddy,83.82,,,,,Unlimited,SBD,M,
Boys,89.81,DQ,Isaiha Rendon,Hubbard,83.1,102.06,,,,Unlimited,SBD,M,
Boys,89.81,DQ,Cooper Wright,Bosqueville,87.18,181.44,,,,Unlimited,SBD,M,
Boys,89.81,NS,Nick Markle,Thorndale,,,,,,Unlimited,SBD,M,
Boys,89.81,NS,Rawy Escobar,Thrall,,,,,,Unlimited,SBD,M,
Boys,99.79,1,Garrett Cook,Rosebud-Lott,99.56,226.8,147.42,249.48,623.69,Unlimited,SBD,M,
Boys,99.79,2,Jay Garcia,Bartlett,99.79,247.21,120.2,235.87,603.28,Unlimited,SBD,M,
Boys,99.79,3,Ediel Cuellar,Riesel,90.99,199.58,136.08,204.12,539.77,Unlimited,SBD,M,
Boys,99.79,4,Jaxon Clore,Milano,94.44,190.51,104.33,165.56,460.4,Unlimited,SBD,M,
Boys,99.79,5,Jared Mathis,Riesel,92.44,158.76,113.4,172.37,444.52,Unlimited,SBD,M,
Boys,99.79,6,Anthony Bradley,Bruceville-Eddy,91.72,151.95,92.99,165.56,410.5,Unlimited,SBD,M,
Boys,99.79,7,Brandon Bury,Bruceville-Eddy,97.16,151.95,102.06,151.95,405.97,Unlimited,SBD,M,
Boys,99.79,DQ,Luke Price,Rosebud-Lott,93.03,,181.44,190.51,,Unlimited,SBD,M,
Boys,99.79,NS,Jake Lane,Hubbard,,,,,,Unlimited,SBD,M,
Boys,99.79,NS,Gabriel Valerio,Hubbard,,,,,,Unlimited,SBD,M,
Boys,109.77,1,Brenner Bretton,Axtell,106.32,192.78,158.76,192.78,544.31,Unlimited,SBD,M,
Boys,109.77,2,Jackson Walker,Rosebud-Lott,100.33,185.97,140.61,170.1,496.68,Unlimited,SBD,M,
Boys,109.77,3,Parker Kasik,West,106.5,204.12,117.93,172.37,494.42,Unlimited,SBD,M,
Boys,109.77,4,Dakota Marak,Thrall,105.87,167.83,124.74,183.7,476.27,Unlimited,SBD,M,
Boys,109.77,5,Nate Hamrick,Moody,103.24,188.24,131.54,151.95,471.74,Unlimited,SBD,M,
Boys,109.77,6,Ty Hancock,West,108.23,181.44,102.06,174.63,458.13,Unlimited,SBD,M,
Boys,109.77,7,Trenton Ketchum,Bosqueville,100.24,181.44,113.4,154.22,449.06,Unlimited,SBD,M,
Boys,109.77,8,Sebastian Hernandez,Rosebud-Lott,104.96,161.03,97.52,142.88,401.43,Unlimited,SBD,M,
Boys,109.77,9,Brennan Cardwell,Moody,103.6,142.88,92.99,136.08,371.95,Unlimited,SBD,M,
Boys,109.77,10,Noah Huff,Bosqueville,102.69,136.08,88.45,97.52,322.05,Unlimited,SBD,M,
Boys,109.77,DQ,Rekless Keen,Milano,108.23,127.01,,136.08,,Unlimited,SBD,M,
Boys,124.74,1,Deven Cuba,Thorndale,111.86,294.84,192.78,272.16,759.77,Unlimited,SBD,M,
Boys,124.74,2,David Gallegos,Bartlett,118.93,226.8,117.93,219.99,564.72,Unlimited,SBD,M,
Boys,124.74,3,Justin Portillo,Rosebud-Lott,115.89,181.44,92.99,190.51,464.93,Unlimited,SBD,M,
Boys,124.74,NS,Abram Cisneros,Riesel,,,,,,Unlimited,SBD,M,
Boys,139.71,1,Jack Cummings,Bosqueville,125.46,249.48,167.83,183.7,601.01,Unlimited,SBD,M,
Boys,139.71,2,Daniel Frei,Milano,138.98,183.7,142.88,174.63,501.22,Unlimited,SBD,M,
Boys,139.71,3,Conner Aycock,Moody,126.92,97.52,70.31,102.06,269.89,Unlimited,SBD,M,
Boys,139.71+,1,Isiah Kraavanger,Hubbard,176.63,204.12,165.56,226.8,596.47,Unlimited,SBD,M,
Boys,139.71+,2,Kasen Ferguson,Bosqueville,142.88,215.46,129.27,183.7,528.44,Unlimited,SBD,M,
Boys,139.71+,NS,Zach Smith,Thorndale,,,,,,Unlimited,SBD,M,
