Name,Sex,Event,Equipment,Age,BirthDate,Division,Squat1Kg,Squat2Kg,Squat3Kg,Best3SquatKg,Squat4Kg,Bench1Kg,Bench2Kg,Bench3Kg,Best3BenchKg,Bench4Kg,Deadlift1Kg,Deadlift2Kg,Deadlift3Kg,Best3DeadliftKg,Deadlift4Kg,TotalKg,Place,WeightClassKg,BodyweightKg,Country
Victoria Malearciuc,F,S,Single-ply,15,,F-T1,85,-95.5,95.5,95.5,100,,,,,,,,,,,95.5,1,47.5,46.50,Moldova
Nina Le Blevenec,F,S,Single-ply,52,,F-M3,-135,135,145,145,-151,,,,,,,,,,,145,1,63,60.70,France
Pauline Sauvage,F,S,Single-ply,20,,F-JR,120,127.5,135,135,,,,,,,,,,,,135,1,63,59.50,France
Sofia Gnatiuc,F,S,Single-ply,16,,F-T2,-100,100,,100,,,,,,,,,,,,100,1,70,68.70,Moldova
Kia-Re Chablis,F,S,Single-ply,46,,F-M2,160,170,175,175,,,,,,,,,,,,175,1,110+,116,UK
Mihai Toma,M,S,Single-ply,17,,M-T2,130,140,145,145,-160.5,,,,,,,,,,,145,1,56,54.80,Moldova
Victor Chirica,M,S,Single-ply,15,,M-T1,115,130,-140.5,130,,,,,,,,,,,,130,1,56,55.70,Moldova
Victor-Daniel Calmic,M,S,Single-ply,17,,M-T2,130,150,160,160,,,,,,,,,,,,160,1,67.5,60.30,Moldova
Roberto Gianello,M,S,Single-ply,69,,M-M6,127.5,135,140,140,144.5,,,,,,,,,,,140,1,67.5,66.80,Italy
Patrick Tellier,M,S,Single-ply,68,,M-M6,130,140,-145,140,,,,,,,,,,,,140,1,75,74.20,France
Cristian Busuioc,M,S,Single-ply,22,,M-JR,-235,-242.5,245,245,,,,,,,,,,,,245,1,82.5,82.50,Moldova
Roman Caisîn,M,S,Single-ply,16,,M-T2,190,202.5,210,210,-220,,,,,,,,,,,210,1,82.5,79.60,Moldova
Grigori Gandrabura,M,S,Single-ply,15,,M-T1,145,-147.5,,145,,,,,,,,,,,,145,1,82.5,75.60,Moldova
Igor Fușcaliuc,M,S,Single-ply,37,,M-SR,230,235,237.5,237.5,,,,,,,,,,,,237.5,1,90,88.70,Moldova
Patrick Valdrey,M,S,Single-ply,59,,M-M4,190,202.5,-212.5,202.5,,,,,,,,,,,,202.5,1,90,89,France
Alexandr Croitor,M,S,Single-ply,17,,M-T2,180,190,200,200,205,,,,,,,,,,,200,1,90,87.80,Moldova
Dorin Nistor,M,S,Single-ply,14,,M-T1,140,150,,150,,,,,,,,,,,,150,1,90,89.60,Moldova
Stas Reaboi,M,S,Single-ply,34,,M-SR,240,250,260,260,,,,,,,,,,,,260,1,100,99.70,Moldova
Dan Pedan,M,S,Single-ply,34,,M-SR,250,257.5,262.5,262.5,,,,,,,,,,,,262.5,1,110,108.20,Ireland
Dominik Fröhlich,M,S,Single-ply,30,,M-SR,260,262.5,-265,262.5,,,,,,,,,,,,262.5,1,125,123.30,Germany
Martin Tetzlaff,M,S,Single-ply,53,,M-M3,235,,,235,,,,,,,,,,,,235,1,145,125.90,Germany
Victoria Malearciuc,F,S,Raw,15,,F-T1,80,88,92.5,92.5,-95,,,,,,,,,,,92.5,1,47.5,46.50,Moldova
Asia De Fazio,F,S,Raw,17,,F-T2,92.5,97.5,100,100,-100.5,,,,,,,,,,,100,1,50.5,49.60,Italy
Jasmine Louise Sanders,F,S,Raw,34,,F-SR,85,92.5,-100,92.5,,,,,,,,,,,,92.5,2,50.5,50.20,UK
Leea Singer,F,S,Raw,16,,F-T2,75,82.5,-92.5,82.5,,,,,,,,,,,,82.5,2,50.5,49.30,Moldova
Stefania Carella,F,S,Raw,51,,F-M3,-70,70,75,75,,,,,,,,,,,,75,1,53,53,Italy
Irina Moisova,F,S,Raw,16,,F-T2,80,85,87.5,87.5,,,,,,,,,,,,87.5,2,58.5,58.40,Moldova
Alexandra Hasan,F,S,Raw,15,,F-T1,67,75.5,-77.5,75.5,,,,,,,,,,,,75.5,1,55.5,55,Moldova
Gabriela Corcius,F,S,Raw,16,,F-T2,55,62.5,67.5,67.5,,,,,,,,,,,,67.5,1,55.5,55,Moldova
Gina Berther,F,S,Raw,29,,F-SR,110,120,125,125,,,,,,,,,,,,125,1,70,68.40,Switzerland
Sophie Estel,F,S,Raw,58,,F-M4,-105,110,-115,110,,,,,,,,,,,,110,1,70,68.90,France
Lauren Ratcliffe,F,S,Raw,23,,F-JR,92.5,102.5,105,105,,,,,,,,,,,,105,1,63,62.80,UK
Manon Vernon,F,S,Raw,17,,F-T2,95,106,-107.5,106,,,,,,,,,,,,106,1,70,67.80,France
Sofia Gnatiuc,F,S,Raw,16,,F-T2,95,105.5,-107.5,105.5,,,,,,,,,,,,105.5,2,70,68.70,Moldova
Chiara Gehrman,F,S,Raw,24,,F-SR,85,90,92.5,92.5,,,,,,,,,,,,92.5,2,63,62.50,Germany
Valeria Pancioha,F,S,Raw,15,,F-T1,-85,90,-95,90,,,,,,,,,,,,90,6,63,62.70,Moldova
Barbara Marzi,F,S,Raw,53,,F-M3,-85,85,-87.5,85,,,,,,,,,,,,85,1,63,60.60,Italy
Ina Koolhaas-Revers,F,S,Raw,77,,F-M8,80,-87.5,-87.5,80,,,,,,,,,,,,80,1,63,59.80,Netherlands
Katja Hoorn,F,S,Raw,49,,F-M2,75,77.5,80,80,,,,,,,,,,,,80,1,63,61,Netherlands
Margie Reynolds,F,S,Raw,62,,F-M5,-70,-70,70,70,,,,,,,,,,,,70,1,70,67.70,Ireland
Charlotte Penney,F,S,Raw,28,,F-SR,150,-155,155,155,,,,,,,,,,,,155,1,80,78.70,UK
Marion De Boysère,F,S,Raw,31,,F-SR,127.5,137.5,142.5,142.5,,,,,,,,,,,,142.5,2,80,76.70,France
Alysia Gutteridge,F,S,Raw,18,,F-T3,105,115,122.5,122.5,,,,,,,,,,,,122.5,1,80,72.30,UK
Laura Bury,F,S,Raw,24,,F-SR,105,115,-125,115,,,,,,,,,,,,115,4,80,79.90,Ireland
Susana Perrone,F,S,Raw,60,,F-M5,80,85,90,90,,,,,,,,,,,,90,1,80,78.80,Italy
Kim Mazet,F,S,Raw,39,,F-SR,110,120,137.5,137.5,,,,,,,,,,,,137.5,1,90,86.60,Belgium
Angelika Nowak,F,S,Raw,42,,F-M1,125,132.5,135,135,,,,,,,,,,,,135,1,90,85.90,UK
Peggy Biala,F,S,Raw,42,,F-M1,120,130,135,135,141.5,,,,,,,,,,,135,1,110,101.40,Ireland
Tyka Whitfield,F,S,Raw,35,,F-SR,117.5,122.5,127.5,127.5,,,,,,,,,,,,127.5,4,110,100.10,Netherlands
Louisa Pretorius,F,S,Raw,54,,F-M3,110,-120,-125.5,110,,,,,,,,,,,,110,1,110,100.80,UK
Thomas Faugeras,M,S,Raw,16,,M-T2,90,95,100,100,,,,,,,,,,,,100,1,52,51.30,France
Victor Chirica,M,S,Raw,15,,M-T1,108,115,120,120,122.5,,,,,,,,,,,120,1,56,55.70,Moldova
Mihai Toma,M,S,Raw,17,,M-T2,110,115.5,-120,115.5,,,,,,,,,,,,115.5,1,56,54.80,Moldova
Ion Dobrea,M,S,Raw,19,,M-T3,115,125,135,135,,,,,,,,,,,,135,1,60,59.10,Moldova
Chiril Gavdiuc,M,S,Raw,15,,M-T1,115,-125,125,125,,,,,,,,,,,,125,1,60,58.50,Moldova
Mihai Ostaci,M,S,Raw,16,,M-T2,120,-130,,120,,,,,,,,,,,,120,2,60,58.20,Moldova
Ivan Usturoi,M,S,Raw,14,,M-T1,100,110,120,120,-125.5,,,,,,,,,,,120,1,60,59.80,Moldova
Liam Dierckx,M,S,Raw,29,,M-SR,160,172.5,180,180,,,,,,,,,,,,180,1,67.5,67.30,Belgium
Victor-Daniel Calmic,M,S,Raw,17,,M-T2,130,142.5,145,145,,,,,,,,,,,,145,4,67.5,60.30,Moldova
Federico Elia,M,S,Raw,15,,M-T1,115,125,135,135,140.5,,,,,,,,,,,135,1,67.5,66.10,Italy
Cristea Buclis,M,S,Raw,15,,M-T1,115,125,132.5,132.5,,,,,,,,,,,,132.5,2,67.5,62.80,Moldova
Daniil Suspanov,M,S,Raw,15,,M-T1,115,125,132.5,132.5,,,,,,,,,,,,132.5,3,67.5,64.60,Moldova
Indra Sudarminto,M,S,Raw,33,,M-SR,250,260,270,270,275,,,,,,,,,,,270,1,75,73.50,Belgium
Petru Balabanu,M,S,Raw,29,,M-SR,180,190,197.5,197.5,,,,,,,,,,,,197.5,2,75,73.50,Moldova
Dumitru Calmic,M,S,Raw,27,,M-SR,170,180,182.5,182.5,,,,,,,,,,,,182.5,3,75,72,Moldova
Alexandre Ponnier Chalony,M,S,Raw,48,,M-M2,168.5,175,183,183,,,,,,,,,,,,183,1,75,74,France
Mihai Gindea,M,S,Raw,17,,M-T2,-165,-165,165,165,,,,,,,,,,,,165,1,75,72.70,Moldova
Marco Schneider,M,S,Raw,48,,M-M2,160,-170,-180,160,,,,,,,,,,,,160,2,75,74.40,Germany
Jack Wilson-Geen,M,S,Raw,17,,M-T2,147.5,157.5,-162.5,157.5,,,,,,,,,,,,157.5,2,75,74.80,UK
Alessio Scarano,M,S,Raw,19,,M-T3,140,-142.5,145,145,,,,,,,,,,,,145,1,75,73.60,Italy
Massimiliano Viccari,M,S,Raw,18,,M-T3,132.5,140,142.5,142.5,,,,,,,,,,,,142.5,2,75,70.30,Italy
Ivan Bodo,M,S,Raw,17,,M-T2,130,140,142.5,142.5,,,,,,,,,,,,142.5,3,75,74.10,Italy
Robert Werner,M,S,Raw,51,,M-M3,-140,140,-145,140,,,,,,,,,,,,140,1,75,73.90,Germany
Llio Polese,M,S,Raw,82,,M-M9,-82.5,82.5,87.5,87.5,90.5,,,,,,,,,,,87.5,1,75,72.90,Italy
Cristian Busuioc,M,S,Raw,22,,M-JR,-225,225,233.5,233.5,,,,,,,,,,,,233.5,1,82.5,82.50,Moldova
Roman Caisîn,M,S,Raw,16,,M-T2,180,190,202.5,202.5,,,,,,,,,,,,202.5,1,82.5,79.60,Moldova
Grigori Gandrabura,M,S,Raw,15,,M-T1,160,175.5,-180,175.5,,,,,,,,,,,,175.5,1,82.5,75.60,Moldova
Grigore Popa,M,S,Raw,18,,M-T3,145,,,145,,,,,,,,,,,,145,1,82.5,78.40,Moldova
Maximilian Madulin,M,S,Raw,16,,M-T2,135,142.5,-150,142.5,,,,,,,,,,,,142.5,2,82.5,80.10,Moldova
Kevin Van Dorsten,M,S,Raw,21,,M-JR,215,225,230,230,,,,,,,,,,,,230,1,90,90,Netherlands
Felix Strong,M,S,Raw,18,,M-T3,210,221,-227.5,221,,,,,,,,,,,,221,1,90,89,Switzerland
Igor Fușcaliuc,M,S,Raw,37,,M-SR,190,-200,202.5,202.5,,,,,,,,,,,,202.5,3,90,88.70,Moldova
Alexander Croitor,M,S,Raw,17,,M-T2,-170,180,190,190,,,,,,,,,,,,190,1,90,87.80,Moldova
Stefan Gaina,M,S,Raw,19,,M-T3,165,177.5,-192.5,177.5,,,,,,,,,,,,177.5,2,90,89.90,Moldova
Patrick Valfrey,M,S,Raw,59,,M-M4,170,-182.5,,170,,,,,,,,,,,,170,1,90,89,France
Dorin Nistor,M,S,Raw,14,,M-T1,140,151.5,157.5,157.5,,,,,,,,,,,,157.5,1,90,89.60,Moldova
Henry Lynch,M,S,Raw,15,,M-T1,130,145,-157.5,145,,,,,,,,,,,,145,1,90,86.70,UK
Eugen Balaniuc,M,S,Raw,14,,M-T1,122.5,-132.5,-132.5,122.5,,,,,,,,,,,,122.5,2,90,85.30,Moldova
Dennis Van De Vondel,M,S,Raw,30,,M-SR,235,245,247.5,247.5,,,,,,,,,,,,247.5,3,100,98.90,Belgium
Jermaine Major,M,S,Raw,37,,M-SR,225,240,245,245,,,,,,,,,,,,245,1,100,98.60,UK
Stas Reaboi,M,S,Raw,34,,M-SR,220,235,242.5,242.5,,,,,,,,,,,,242.5,2,100,99.70,Moldova
Luca Di Caprio,M,S,Raw,19,,M-T3,227.5,-232.5,232.5,232.5,240,,,,,,,,,,,232.5,3,100,99.80,Italy
Michele Lonardelli,M,S,Raw,49,,M-M2,200,210,220,220,,,,,,,,,,,,220,1,100,90.80,Italy
Gheorghe Druta,M,S,Raw,16,,M-T2,-190,190,205,205,,,,,,,,,,,,205,1,100,99.90,Moldova
Nichita Gumeniuc,M,S,Raw,21,,M-JR,172.5,180,192.5,192.5,,,,,,,,,,,,192.5,1,100,97.90,Moldova
Lurie Tapu,M,S,Raw,18,,M-T3,160,170,-175,170,,,,,,,,,,,,170,1,100,96.10,Moldova
William Courtney,M,S,Raw,41,,M-M1,225,240,-245.5,240,,,,,,,,,,,,240,2,110,106.80,Ireland
Daniil Vitkin,M,S,Raw,22,,M-JR,205,-220,220,220,,,,,,,,,,,,220,1,110,108.70,Germany
Dan Pedan,M,S,Raw,34,,M-SR,207.5,215,,215,,,,,,,,,,,,215,1,110,108.20,Ireland
Carlos Rufo,M,S,Raw,48,,M-M2,190,205,-217.5,205,,,,,,,,,,,,205,3,110,108.10,France
Cristian Bejenari,M,S,Raw,18,,M-T3,180,195,-200,195,,,,,,,,,,,,195,1,110,101,Moldova
Corneliu Cosovan,M,S,Raw,14,,M-T1,-132.5,132.5,,132.5,,,,,,,,,,,,132.5,1,110,107.80,Moldova
Brian Casali,M,S,Raw,29,,M-SR,240,260,280,280,,,,,,,,,,,,280,1,125,121.80,Italy
Dominik Fröhlich,M,S,Raw,30,,M-SR,225,235,242.5,242.5,,,,,,,,,,,,242.5,1,125,123.30,Germany
Fraser Frisel,M,S,Raw,45,,M-M2,187.5,195,-200,195,,,,,,,,,,,,195,2,125,118.50,UK
Stanislav Uja,M,S,Raw,18,,M-T3,240,255,-260,255,,,,,,,,,,,,255,1,145,129.20,Moldova
Martin Tetzlaff,M,S,Raw,53,,M-M3,200,215,230,230,241,,,,,,,,,,,230,1,145,125.90,Germany
Vladimir Soldan,M,S,Raw,15,,M-T1,142.5,155,-170,155,,,,,,,,,,,,155,1,145,128.60,Moldova
Victoria Malearciuc,F,B,Raw,15,,F-T1,,,,,,52.2,57.5,62.5,62.5,-65,,,,,,62.5,1,47.5,46.70,Moldova
Asia De Fazio,F,B,Raw,17,,F-T2,,,,,,47.5,50,-52.2,50,,,,,,,50,1,50.5,50.10,Italy
Leea Singer,F,B,Raw,16,,F-T2,,,,,,45,-50,-50,45,,,,,,,45,2,50.5,49.70,Moldova
Marina Vogliano,F,B,Raw,58,,F-M4,,,,,,52.5,55,56,56,-57,,,,,,56,1,53,52.20,Italy
Stefania Carella,F,B,Raw,51,,F-M3,,,,,,65,70,-72,70,,,,,,,70,1,55.5,53.50,Italy
Tatiana Fuga,F,B,Raw,56,,F-M4,,,,,,50,52.5,-55,52.5,,,,,,,52.5,1,55.5,54.90,Moldova
Addolorata Carella,F,B,Raw,53,,F-M3,,,,,,47.5,50,-52.2,50,,,,,,,50,2,55.5,55,Italy
Wendy Welburn,F,B,Raw,70,,F-M7,,,,,,40,42.5,-45,42.5,,,,,,,42.5,1,55.5,53.90,UK
Alexandra Hasan,F,B,Raw,15,,F-T1,,,,,,40,42.5,45,45,,,,,,,45,1,58.5,56.80,Moldova
Pauline Sauvage,F,B,Raw,20,,F-JR,,,,,,77.5,82.2,-87.5,82.2,,,,,,,82.2,1,63,59.40,France
Sophie Hebert,F,B,Raw,34,,F-SR,,,,,,60,65,-67.5,65,,,,,,,65,2,63,61.40,France
Eva Dieleman,F,B,Raw,23,,F-JR,,,,,,60,-65,-65,60,,,,,,,60,2,63,62.40,Netherlands
Chiara Gehrmann,F,B,Raw,24,,F-SR,,,,,,55,60,-65,60,,,,,,,60,3,63,62.60,Germany
Irina Moisova,F,B,Raw,16,,F-T2,,,,,,47.5,55,-57.5,55,,,,,,,55,1,63,58.70,Moldova
Barbara Marzi,F,B,Raw,53,,F-M3,,,,,,45,50,55,55,,,,,,,55,1,63,60.60,Italy
Katja Horn,F,B,Raw,,,F-M3,,,,,,50,52.5,-55,52.5,,,,,,,52.5,1,63,60.30,Netherlands
Lauren Ratcliffe,F,B,Raw,23,,F-JR,,,,,,47.5,52.5,-55,52.5,,,,,,,52.5,3,63,62.80,UK
Ina Koolhaas Reversa,F,B,Raw,77,,F-M8,,,,,,50,-52.5,-55,50,,,,,,,50,1,63,60,Netherlands
Valeria Pancioha,F,B,Raw,15,,F-T1,,,,,,47.5,-50,-50,47.5,,,,,,,47.5,1,63,62.70,Moldova
Heide Hegner,F,B,Raw,67,,F-M6,,,,,,45,-50,-50,45,,,,,,,45,1,63,59.90,Germany
Nicola Bury,F,B,Raw,55,,F-M4,,,,,,40,45,-47.5,45,,,,,,,45,1,63,62,Ireland
Renate Van der Weele,F,B,Raw,26,,F-SR,,,,,,80,87.5,90,90,,,,,,,90,1,70,68.80,Netherlands
Gina Berther,F,B,Raw,29,,F-SR,,,,,,75,80,-85,80,,,,,,,80,2,70,68.50,Switzerland
Manon Bradley,F,B,Raw,57,,F-M4,,,,,,75,-77.5,-77.5,75,,,,,,,75,1,70,65.40,UK
Aurélie Bouniol,F,B,Raw,40,,F-M1,,,,,,62.5,65,-70,65,,,,,,,65,1,70,67.70,France
Sofia Gnatiuc,F,B,Raw,16,,F-T2,,,,,,45,50,-55,50,,,,,,,50,1,70,69.20,Moldova
Margie Reynolds,F,B,Raw,62,,F-M5,,,,,,40,42.5,-45,42.5,,,,,,,42.5,1,70,67.90,Ireland
Alysia Gutteridge,F,B,Raw,18,,F-T3,,,,,,77.5,85,90,90,-92.5,,,,,,90,1,80,72.50,UK
Amanda Payton,F,B,Raw,41,,F-M1,,,,,,-85,85,-87.5,85,,,,,,,85,1,80,79.50,UK
Charlotte Penney,F,B,Raw,28,,F-SR,,,,,,80,-85,85,85,,,,,,,85,3,80,79.60,UK
Susana Perrone,F,B,Raw,60,,F-M5,,,,,,66,70,-71,70,,,,,,,70,1,80,78.60,Italy
Helen Guerin,F,B,Raw,64,,F-M5,,,,,,45,-47.5,47.5,47.5,,,,,,,47.5,2,80,78.80,Ireland
Kim Mazet,F,B,Raw,39,,F-SR,,,,,,72.5,82.5,-87.5,82.5,,,,,,,82.5,1,90,85.50,Netherlands
Angelika Nowak,F,B,Raw,42,,F-M1,,,,,,-62.5,65,72.5,72.5,,,,,,,72.5,1,90,86.70,Netherlands
Laura Bury,F,B,Raw,24,,F-SR,,,,,,60,62.5,-65,62.5,,,,,,,62.5,3,90,80.70,Ireland
Froukje De Vries,F,B,Raw,54,,F-M3,,,,,,85,90,92.5,92.5,,,,,,,92.5,1,110,99.90,Netherlands
Tyka Whitfield,F,B,Raw,35,,F-SR,,,,,,67.5,-72.5,-75,67.5,,,,,,,67.5,2,110,100,Netherlands
Peggy Biala,F,B,Raw,42,,F-M1,,,,,,65,-67.5,-67.5,65,,,,,,,65,1,110,101.80,Ireland
Louisa Pretorius,F,B,Raw,54,,F-M3,,,,,,60,62.5,-65,62.5,,,,,,,62.5,2,110,101,UK
Kia-Re Chablis,F,B,Raw,46,,F-M2,,,,,,80,-85,85,85,,,,,,,85,1,110+,115.50,UK
Mihai Toma,M,B,Single-ply,17,,M-T2,,,,,,85,90,95.5,95.5,-100,,,,,,95.5,1,56,54.50,Moldova
Darren Boland,M,B,Single-ply,49,,M-M2,,,,,,145,150.5,152.5,152.5,,,,,,,152.5,1,67.5,66,Belgium
Denis Baltaga,M,B,Single-ply,39,,M-SR,,,,,,-140,140,152.5,152.5,,,,,,,152.5,2,67.5,66.90,Moldova
Jean-Michel Moreiro,M,B,Single-ply,71,,M-M7,,,,,,87.5,90,92.5,92.5,,,,,,,92.5,1,67.5,63.30,France
Mathieu Coudriaud,M,B,Single-ply,37,,M-SR,,,,,,160,165,-175,165,,,,,,,165,1,75,72.60,France
Dumitru Calmic,M,B,Single-ply,27,,M-SR,,,,,,-150,150,-160,150,,,,,,,150,1,75,72.70,Moldova
Patrick Tellier,M,B,Single-ply,68,,M-M6,,,,,,105,110,115,115,,,,,,,115,1,75,74.50,France
Grigori Gandaranura,M,B,Single-ply,15,,M-T1,,,,,,-105.5,-105.5,105.5,105.5,,,,,,,105.5,1,75,74.40,Moldova
Denis Irimia,M,B,Single-ply,18,,M-T3,,,,,,160,170,180,180,,,,,,,180,1,82.5,81.60,Moldova
Michel Sorenzo,M,B,Single-ply,66,,M-M6,,,,,,140,-148,-148,140,,,,,,,140,1,82.5,82,France
Bart Neyt,M,B,Single-ply,55,,M-M4,,,,,,-132.5,132.5,135,135,,,,,,,135,1,82.5,80.20,Belgium
Michel Rioland,M,B,Single-ply,76,,M-M8,,,,,,95,102.5,-111,102.5,,,,,,,102.5,1,82.5,81.30,France
Roman Caisîn,M,B,Single-ply,16,,M-T2,,,,,,110,,,110,,,,,,,110,1,82.5,80.40,Moldova
Hervé Kereyn,M,B,Single-ply,80,,M-M9,,,,,,-90,95,100,100,102.5,,,,,,100,1,82.5,80.50,Belgium
Alexei Grigorov,M,B,Single-ply,37,,M-SR,,,,,,177.5,-182.5,182.5,182.5,,,,,,,182.5,1,90,88.20,Moldova
Patrick Sachs,M,B,Single-ply,32,,M-SR,,,,,,-170,-175,182.5,182.5,,,,,,,182.5,2,90,86.30,Germany
Igor Fușcaliuc,M,B,Single-ply,37,,M-SR,,,,,,170,-175,177.5,177.5,,,,,,,177.5,3,90,88.30,Moldova
Patrick Le Belevenec,M,B,Single-ply,61,,M-M5,,,,,,150,160,-180,160,,,,,,,160,1,90,86.40,France
Patrick Valfrey,M,B,Single-ply,59,,M-M4,,,,,,150,160,-175,160,,,,,,,160,1,90,88.90,France
Roy Scott,M,B,Single-ply,62,,M-M5,,,,,,120,130,-140,130,,,,,,,130,2,90,87.50,Ireland
Jonathan Kocabas,M,B,Single-ply,38,,M-SR,,,,,,190,200,205,205,,,,,,,205,1,100,94.80,Belgium
Thomas Goldhahn,M,B,Single-ply,45,,M-M2,,,,,,180,190,202.5,202.5,,,,,,,202.5,1,100,94.60,Germany
Stas Reaboi,M,B,Single-ply,34,,M-SR,,,,,,-190,-195,195,195,,,,,,,195,3,100,98.80,Moldova
David Pütz,M,B,Single-ply,47,,M-M2,,,,,,-175,177.5,-182.5,177.5,,,,,,,177.5,2,100,98.40,Germany
Alexandr Croitor,M,B,Single-ply,17,,M-T2,,,,,,130,140.5,-150,140.5,,,,,,,140.5,1,100,90.40,Moldova
Dorin Nistor,M,B,Single-ply,14,,M-T1,,,,,,97.5,100,,100,,,,,,,100,1,100,91.80,Moldova
Alexandru Paşa,M,B,Single-ply,67,,M-M6,,,,,,170,-180,180,180,,,,,,,180,1,110,107,Moldova
Dan Pedan,M,B,Single-ply,34,,M-SR,,,,,,177.5,,,177.5,,,,,,,177.5,2,110,107.90,Ireland
Fabrizio Scorcioni,M,B,Single-ply,60,,M-M5,,,,,,150,160,168,168,,,,,,,168,1,110,103,Belgium
Oscar Vlaeminck,M,B,Single-ply,67,,M-M6,,,,,,105,110,112.5,112.5,,,,,,,112.5,2,110,107.40,Belgium
Neil Thomas,M,B,Single-ply,52,,M-M3,,,,,,-250.5,250.5,,250.5,,,,,,,250.5,1,125,115.20,UK
Marcel Gheldof,M,B,Single-ply,58,,M-M4,,,,,,-195,-195,197.5,197.5,,,,,,,197.5,1,125,116.20,Belgium
Tony Chard,M,B,Single-ply,55,,M-M4,,,,,,-175,180,-190,180,,,,,,,180,2,125,123.40,France
Martin Tetzlaff,M,B,Single-ply,53,,M-M3,,,,,,205,210,220,220,,,,,,,220,1,145,125.90,Germany
Thomas Faugeras,M,B,Raw,16,,M-T2,,,,,,-60,60,62.5,62.5,,,,,,,62.5,1,52,51.40,France
Mihai Toma,M,B,Raw,17,,M-T2,,,,,,80,85,-90,85,,,,,,,85,1,56,54.50,Moldova
Victor Chirica,M,B,Raw,15,,M-T1,,,,,,75,85,-88,85,,,,,,,85,1,56,56,Moldova
Khalid Hamou,M,B,Raw,38,,M-SR,,,,,,-105,105,110,110,,,,,,,110,1,60,58.60,France
Mihai Ostaci,M,B,Raw,16,,M-T2,,,,,,90,100,105,105,,,,,,,105,1,60,58.30,Moldova
Jean-Michel Dewitte,M,B,Raw,41,,M-M1,,,,,,97.5,102.5,106,106,-110.5,,,,,,106,1,60,59.30,Belgium
Tymofil Motora,M,B,Raw,15,,M-T1,,,,,,85,90,94,94,-96,,,,,,94,1,60,58.30,Germany
Chiril Gavdiuc,M,B,Raw,15,,M-T1,,,,,,75,80,82.5,82.5,,,,,,,82.5,2,60,59.40,Moldova
Ion Dobrea,M,B,Raw,19,,M-T3,,,,,,80,-85,85,85,,,,,,,85,1,60,59.10,Moldova
Ivan Usturoi,M,B,Raw,14,,M-T1,,,,,,70,77.5,-82.5,77.5,,,,,,,77.5,3,60,59.70,Moldova
Jessy Harms,M,B,Raw,24,,M-SR,,,,,,-135,140,142.5,142.5,,,,,,,142.5,1,67.5,67.30,Netherlands
Anthony Pauchard,M,B,Raw,25,,M-SR,,,,,,125,130,-135,130,,,,,,,130,2,67.5,66.80,France
Denis Baltaga,M,B,Raw,39,,M-SR,,,,,,115,120,-122.5,120,,,,,,,120,3,67.5,66.90,Moldova
Mark Anderson,M,B,Raw,57,,M-M4,,,,,,107.5,115,-121.5,115,,,,,,,115,1,67.5,66.60,UK
Stéphane Chevillard,M,B,Raw,43,,M-M1,,,,,,107.5,112.5,-115,112.5,,,,,,,112.5,1,67.5,66.20,France
Ioan Esanu,M,B,Raw,18,,M-T3,,,,,,-105,105,110,110,,,,,,,110,1,67.5,64,Moldova
Hervé Prieux,M,B,Raw,55,,M-M4,,,,,,92.5,-97.5,97.5,97.5,,,,,,,97.5,2,67.5,66.80,France
Federico Elia,M,B,Raw,15,,M-T1,,,,,,80,85,90,90,,,,,,,90,1,67.5,66.10,Italy
Victor-Daniel Calmic,M,B,Raw,17,,M-T2,,,,,,82.5,-87.5,-87.5,82.5,,,,,,,82.5,1,67.5,61.20,Moldova
Jean-Michel Moreiro,M,B,Raw,71,,M-M7,,,,,,77.5,80,82.5,82.5,,,,,,,82.5,1,67.5,63.30,France
Daniil Suspanov,M,B,Raw,15,,M-T1,,,,,,75,80,-85,80,,,,,,,80,2,67.5,63.90,Moldova
Cristea Bucli,M,B,Raw,15,,M-T1,,,,,,70,75,-82.5,75,,,,,,,75,3,67.5,61.80,Moldova
Dominique Loquet,M,B,Raw,61,,M-M5,,,,,,-87.5,,,,,,,,,,,DQ,67.5,67.50,France
Mathieu Coudriaud,M,B,Raw,37,,M-SR,,,,,,145,-150,150,150,,,,,,,150,1,75,72.60,France
Vladimir Milciuc,M,B,Raw,36,,M-SR,,,,,,137.5,142.5,147.5,147.5,,,,,,,147.5,2,75,74.90,Moldova
Dumitru Calmic,M,B,Raw,27,,M-SR,,,,,,137.5,-145,145,145,,,,,,,145,3,75,72.70,Moldova
Pjotr Visman,M,B,Raw,23,,M-JR,,,,,,120,125,130,130,,,,,,,130,1,75,73.80,Netherlands
Sébatien Brito,M,B,Raw,38,,M-SR,,,,,,120,125,-127.5,125,,,,,,,125,5,75,74.20,France
Mihai Gindea,M,B,Raw,17,,M-T2,,,,,,110,-120,120,120,,,,,,,120,1,75,72.40,Moldova
Denis Procopciuc,M,B,Raw,22,,M-JR,,,,,,120,-132.5,-132.5,120,,,,,,,120,2,75,73.80,Moldova
Grigori Gandrabura,M,B,Raw,15,,M-T1,,,,,,100,110,115.5,115.5,-117.5,,,,,,115.5,1,75,74.40,Moldova
Eric Buron,M,B,Raw,61,,M-M5,,,,,,110,112.5,-115,112.5,,,,,,,112.5,1,75,72.70,France
Robert Werner,M,B,Raw,51,,M-M3,,,,,,105,107.5,110,110,,,,,,,110,1,75,74.40,Germany
Jurgen Luxem,M,B,Raw,53,,M-M3,,,,,,105,-110,-110,105,,,,,,,105,2,75,74.60,Germany
Alessio Scarano,M,B,Raw,19,,M-T3,,,,,,-97.5,100,102.5,102.5,,,,,,,102.5,1,75,73.70,Italy
Ralf Holland,M,B,Raw,61,,M-M5,,,,,,100,-105,-105,100,,,,,,,100,2,75,73.40,Germany
Massimiliano Viccari,M,B,Raw,18,,M-T3,,,,,,97.5,-100,-100,97.5,,,,,,,97.5,2,75,70.50,Italy
Llio Polese,M,B,Raw,82,,M-M9,,,,,,82.5,90,95,95,,,,,,,95,1,75,74,Italy
Ivan Bodo,M,B,Raw,17,,M-T2,,,,,,87.5,-92.5,-92.5,87.5,,,,,,,87.5,2,75,74.60,Italy
Heinrich Haft,M,B,Raw,80,,M-M9,,,,,,65,70,72.5,72.5,,,,,,,72.5,2,75,69.60,Germany
Andrei Senchiv,M,B,Raw,35,,M-SR,,,,,,175,182.5,185,185,,,,,,,185,1,82.5,81.70,Moldova
Dan Chepa,M,B,Raw,40,,M-M1,,,,,,157.5,162.5,165,165,,,,,,,165,1,82.5,80.90,UK
Denis Irima,M,B,Raw,18,,M-T3,,,,,,150,157.5,165.5,165.5,,,,,,,165.5,1,82.5,81.60,Moldova
Brodie Wilson,M,B,Raw,23,,M-JR,,,,,,155,165,-172.5,165,,,,,,,165,1,82.5,82.10,UK
Victor Ciobanu,M,B,Raw,43,,M-M1,,,,,,147.5,155,160,160,,,,,,,160,2,82.5,82.10,Moldova
Florian Labbe,M,B,Raw,32,,M-SR,,,,,,142.5,147.5,150,150,,,,,,,150,6,82.5,82.20,France
Ghenadie Tabanschi,M,B,Raw,27,,M-SR,,,,,,135,140,-145,140,,,,,,,140,7,82.5,82.50,Moldova
Andreas Günther,M,B,Raw,60,,M-M5,,,,,,120,127.5,130,130,,,,,,,130,1,82.5,81.70,Germany
Bart Neyt,M,B,Raw,55,,M-M4,,,,,,115,120,125,125,,,,,,,125,1,82.5,80.20,Belgium
David Collinet,M,B,Raw,53,,M-M3,,,,,,115,120,122.5,122.5,,,,,,,122.5,1,82.5,81.40,France
Michel Sorenzo,M,B,Raw,66,,M-M6,,,,,,117.5,122.5,-127.5,122.5,,,,,,,122.5,1,82.5,82,France
Roman Caisîn,M,B,Raw,16,,M-T2,,,,,,100,110,117.5,117.5,,,,,,,117.5,1,82.5,80.40,Moldova
Cyrille Cusumano,M,B,Raw,53,,M-M3,,,,,,110,115,-120,115,,,,,,,115,2,82.5,78,France
Grigore Popa,M,B,Raw,18,,M-T3,,,,,,115,-125,-125,115,,,,,,,115,2,82.5,78.80,Moldova
Viktor Schlinger,M,B,Raw,72,,M-M7,,,,,,95,100,105,105,,,,,,,105,1,82.5,81.40,Germany
Maximilian Madulin,M,B,Raw,16,,M-T2,,,,,,92.5,100,-110,100,,,,,,,100,2,82.5,79.80,Moldova
Henk Nijstad,M,B,Raw,66,,M-M6,,,,,,92.5,95,,95,,,,,,,95,2,82.5,80.20,Netherlands
Michel Rioland,M,B,Raw,76,,M-M8,,,,,,85,90,95,95,,,,,,,95,1,82.5,81.30,France
Marcel van Bijnen,M,B,Raw,53,,M-M3,,,,,,90,,,90,,,,,,,90,3,82.5,81.20,Netherlands
Grégory Cotton,M,B,Raw,43,,M-M1,,,,,,175,180,182.5,182.5,,,,,,,182.5,1,90,89,France
Patrick Sachs,M,B,Raw,32,,M-SR,,,,,,162.5,167.5,170,170,,,,,,,170,2,90,86.30,Germany
Michele Lonardelli,M,B,Raw,49,,M-M2,,,,,,150,160,170,170,,,,,,,170,1,90,90,Italy
Paul Collinson,M,B,Raw,60,,M-M5,,,,,,155,162.5,165,165,-167.5,,,,,,165,1,90,86.70,UK
Igor Fascaliuc,M,B,Raw,37,,M-SR,,,,,,142.5,150,-152.5,150,,,,,,,150,5,90,88.30,Moldova
Kevin Van Dorsten,M,B,Raw,21,,M-JR,,,,,,137.5,145,150,150,,,,,,,150,1,90,89.70,Netherlands
Felix Strong,M,B,Raw,18,,M-T3,,,,,,140,145,-150,145,,,,,,,145,1,90,88,Switzerland
Nathan Flick,M,B,Raw,50,,M-M3,,,,,,135,140,-147.5,140,,,,,,,140,1,90,88.90,Australia
Georges Gorin,M,B,Raw,47,,M-M2,,,,,,127.5,132.5,137.5,137.5,,,,,,,137.5,2,90,88.50,France
Patrick Valfrey,M,B,Raw,59,,M-M4,,,,,,125,132.5,137.5,137.5,,,,,,,137.5,1,90,88.90,France
Fabrice Verdure,M,B,Raw,47,,M-M2,,,,,,127.5,132.2,137.5,137.5,,,,,,,137.5,3,90,89.10,France
Pavel Gojuhari,M,B,Raw,47,,M-M2,,,,,,120,127.5,132.5,132.5,,,,,,,132.5,4,90,88.50,Moldova
John Pauwels,M,B,Raw,54,,M-M3,,,,,,130,-137.5,-137.5,130,,,,,,,130,2,90,86.50,Netherlands
Danilo Ceirani,M,B,Raw,60,,M-M5,,,,,,110,125,-130,125,,,,,,,125,2,90,87.10,Italy
Wolfgang Meyer,M,B,Raw,56,,M-M4,,,,,,110,117.5,122.5,122.5,,,,,,,122.5,2,90,87.30,Germany
Oleg Beloborodow,M,B,Raw,64,,M-M5,,,,,,120,-127.5,-127.5,120,,,,,,,120,3,90,85.80,Moldova
Chris van Orsouw,M,B,Raw,,,M-M5,,,,,,110,115,-120,115,,,,,,,115,1,90,87.90,Netherlands
Stefan Gaina,M,B,Raw,19,,M-T3,,,,,,-110,110,-120,110,,,,,,,110,2,90,89.40,Moldova
Eugen Balaniuc,M,B,Raw,14,,M-T1,,,,,,-90,,,,,,,,,,,DQ,90,85,Moldova
Ruslan Matcovschi,M,B,Raw,43,,M-M1,,,,,,187.5,192.5,-200,192.5,,,,,,,192.5,1,100,96.50,Moldova
Stas Reaboi,M,B,Raw,34,,M-SR,,,,,,180,185,,185,,,,,,,185,2,100,98.80,Moldova
Tommy De Mulder,M,B,Raw,38,,M-SR,,,,,,160,167.5,172.2,172.2,,,,,,,172.2,3,100,98.80,Belgium
Yann Leroy,M,B,Raw,42,,M-M1,,,,,,162.5,172.5,-182.5,172.5,,,,,,,172.5,2,100,96.60,France
Rudolf Oetker,M,B,Raw,21,,M-JR,,,,,,150,155,160,160,,,,,,,160,1,100,96.80,Italy
Norbert Kulczycki,M,B,Raw,38,,M-SR,,,,,,160,-165,-165,160,,,,,,,160,6,100,97.70,UK
Conrad Harpham,M,B,Raw,50,,M-M3,,,,,,137.5,-142.5,142.5,142.5,,,,,,,142.5,1,100,100,UK
Alexandr Croitor,M,B,Raw,17,,M-T2,,,,,,125,135,-141,135,,,,,,,135,1,100,90.40,Moldova
David Pütz,M,B,Raw,47,,M-M2,,,,,,125,132.5,135,135,,,,,,,135,1,100,98.40,Germany
Peter Kotschenreuther,M,B,Raw,60,,M-M5,,,,,,112.5,120,127.5,127.5,,,,,,,127.5,1,100,95.60,Germany
Gheorghe Druta,M,B,Raw,16,,M-T2,,,,,,120,-127.5,-135,120,,,,,,,120,2,100,98.90,Moldova
Colin Kennard,M,B,Raw,52,,M-M3,,,,,,120,-130,-130,120,,,,,,,120,2,100,99.60,Ireland
Uwe Abend,M,B,Raw,63,,M-M5,,,,,,112.5,117.5,,117.5,,,,,,,117.5,2,100,90.70,Netherlands
Lurie Tapu,M,B,Raw,18,,M-T3,,,,,,112.5,115,117.5,117.5,,,,,,,117.5,1,100,96.30,Moldova
Colin Mathers,M,B,Raw,71,,M-M7,,,,,,100,105,-107.5,105,,,,,,,105,1,100,94.50,Switzerland
Dorin Nistor,M,B,Raw,14,,M-T1,,,,,,92.5,-102.5,-102.5,92.5,,,,,,,92.5,1,100,91.80,Moldova
Nichita Gumeniuc,M,B,Raw,21,,M-JR,,,,,,-125,-125,-125,,,,,,,,,DQ,100,99.90,Moldova
Harbans Bansal,M,B,Raw,46,,M-M2,,,,,,185,190,-200,190,,,,,,,190,1,110,108.20,UK
Alexandre Rounaud,M,B,Raw,35,,M-SR,,,,,,185,-187.5,-187.5,185,,,,,,,185,2,110,107.50,France
Alexandru Paşa,M,B,Raw,67,,M-M6,,,,,,170,175,177.5,177.5,,,,,,,177.5,1,110,107,Moldova
Andreas Kling,M,B,Raw,57,,M-M4,,,,,,170,175,-180,175,,,,,,,175,1,110,101,Germany
Egor Martiniuc,M,B,Raw,40,,M-M1,,,,,,175,-185,-185,175,,,,,,,175,1,110,108.40,Belgium
Giovanni Tarantino,M,B,Raw,32,,M-SR,,,,,,160,167.5,172.5,172.5,,,,,,,172.5,5,110,102.5,Italy
Sean Hayes,M,B,Raw,33,,M-SR,,,,,,170,-182.5,-182.5,170,,,,,,,170,7,110,107.70,UK
William Courtney,M,B,Raw,41,,M-M1,,,,,,160,-167.5,-167.5,160,,,,,,,160,2,110,106.50,Ireland
John McComish,M,B,Raw,55,,M-M4,,,,,,140,-145,145,145,,,,,,,145,2,110,108.30,UK
Daniil Vitkin,M,B,Raw,22,,M-JR,,,,,,130,140,145,145,,,,,,,145,1,110,108.80,Germany
Chris Claydon,M,B,Raw,56,,M-M4,,,,,,130,135,142.5,142.5,,,,,,,142.5,3,110,103,UK
Cristian Bejenari,M,B,Raw,18,,M-T3,,,,,,142.5,-145,,142.5,,,,,,,142.5,1,110,101.50,Moldova
Dan Pedan,M,B,Raw,34,,M-SR,,,,,,112.5,117.5,120,120,,,,,,,120,13,110,107.90,Ireland
Stefan Lauer,M,B,Raw,62,,M-M5,,,,,,100,110,-112.5,110,,,,,,,110,1,110,103.60,Germany
Pierre Vallais,M,B,Raw,77,,M-M8,,,,,,97.5,102.5,105,105,,,,,,,105,1,110,102.50,France
Corneliu Cosovan,M,B,Raw,14,,M-T1,,,,,,102.5,-105,-105,102.5,,,,,,,102.5,1,110,108.60,Moldova
Oscar Vlaeminck,M,B,Raw,67,,M-M6,,,,,,225,230,231.5,231.5,,,,,,,231.5,2,110,107.40,Belgium
Akraman Saydoulayev,M,B,Raw,40,,M-M1,,,,,,187.5,200,-205,200,,,,,,,200,1,125,115.60,France
Korbinian Ring,M,B,Raw,26,,M-SR,,,,,,175,187.5,192.2,192.2,,,,,,,192.2,2,125,124.10,Germany
Dominik Fröhlich,M,B,Raw,30,,M-SR,,,,,,180,187.5,-192.5,187.5,,,,,,,187.5,3,125,124,Germany
Cédric Anglade,M,B,Raw,37,,M-SR,,,,,,-180,180,-190,180,,,,,,,180,4,125,122.20,France
Jeroen Pol,M,B,Raw,37,,M-SR,,,,,,170,,,170,,,,,,,170,5,125,123.90,Netherlands
Neil Thomas,M,B,Raw,52,,M-M3,,,,,,165,-175,-175,165,,,,,,,165,1,125,115.20,UK
Hendrik Hofman,M,B,Raw,27,,M-SR,,,,,,152.5,157.5,162.5,162.5,,,,,,,162.5,7,125,115.50,Germany
Jos Ploegmakers,M,B,Raw,65,,M-M6,,,,,,150,160,,160,,,,,,,160,1,125,121,Netherlands
Tony Chard,M,B,Raw,55,,M-M4,,,,,,155,-160,-160,155,,,,,,,155,1,125,123.40,France
Johny de Witte,M,B,Raw,56,,M-M4,,,,,,-145,-145,-145,,,,,,,,,DQ,125,123.10,Netherlands
David Owen,M,B,Raw,63,,M-M5,,,,,,165,172.5,177.5,177.5,,,,,,,177.5,1,125,123.60,UK
Martin Tetzlaff,M,B,Raw,53,,M-M3,,,,,,160,-167.5,-167.5,160,,,,,,,160,1,145,125.90,Germany
Orson Harmas,M,B,Raw,49,,M-M2,,,,,,160,-167.5,-167.5,160,,,,,,,160,1,145,132.20,Netherlands
Vladimir Soldan,M,B,Raw,15,,M-T1,,,,,,-102.5,102.5,105,105,,,,,,,105,1,145,128,Moldova
Henk Frijters,M,B,Raw,28,,M-SR,,,,,,165,175,182.5,182.5,,,,,,,182.5,1,145,132.40,Ireland
John Vercruyce,M,B,Raw,30,,M-SR,,,,,,200,220,230,230,,,,,,,230,1,145+,160,Belgium
David Hernandez,M,B,Raw,42,,M-M1,,,,,,210,217.5,-225,217.5,,,,,,,217.5,1,145+,152,France
Dustin Strzoda,M,B,Raw,25,,M-SR,,,,,,180,185,190,190,,,,,,,190,3,145+,148,Germany
René Hamers,M,B,Raw,55,,M-M4,,,,,,155,165,175,175,,,,,,,175,1,145+,152.90,Netherlands
Victoria Malearcius,F,D,Raw,15,,F-T1,,,,,,,,,,,105.5,112.5,117.5,117.5,-120,117.5,1,47.5,46.90,Moldova
Asia De Fazio,F,D,Raw,17,,F-T2,,,,,,,,,,,127.5,135,140,140,-145,140,2,50.5,49.80,Italy
Louise Sanders,F,D,Raw,34,,F-SR,,,,,,,,,,,110,117.5,125,125,,125,1,50.5,50.50,UK
Angela Joiner-Handy,F,D,Raw,55,,F-M4,,,,,,,,,,,115,120,125,125,130.5,125,2,50.5,50.50,UK
Leea Singer,F,D,Raw,16,,F-T2,,,,,,,,,,,85,-95,-95,85,,85,1,50.5,50.40,Moldova
Pat Reeves,F,D,Raw,78,,F-M8,,,,,,,,,,,65,68,70,70,,70,1,50.5,48.50,UK
Marina Vogliano,F,D,Raw,58,,F-M4,,,,,,,,,,,140,145,-147.5,145,,145,1,53,52.70,Italy
Stefania Carella,F,D,Raw,51,,F-M3,,,,,,,,,,,122.5,127.5,132.5,132.5,,132.5,2,55.5,54,Italy
Addolorata Carella,F,D,Raw,53,,F-M3,,,,,,,,,,,100,105,110,110,,110,1,55.5,55.30,Italy
Gabriela Corciubas,F,D,Raw,16,,F-T2,,,,,,,,,,,72.5,85,97.5,97.5,,97.5,1,55.5,55.50,Moldova
Nicole Kling,F,D,Raw,,,F-M3,,,,,,,,,,,85,95,-102.5,95,,95,1,55.5,54.70,Germany
Wendy Welburn,F,D,Raw,70,,F-M7,,,,,,,,,,,70,75,80,80,-82.5,80,1,55.5,54.10,UK
Jackie Wood,F,D,Raw,56,,F-M4,,,,,,,,,,,122.5,137.5,150,150,,150,1,58.5,58,UK
Irina Moisova,F,D,Raw,16,,F-T2,,,,,,,,,,,90,100,-107.5,100,,100,1,58.5,58.50,Moldova
Alexandra Hasan,F,D,Raw,15,,F-T1,,,,,,,,,,,70,72.5,82.5,82.5,,82.5,1,58.5,55.80,Moldova
Pauline Sauvage,F,D,Raw,20,,F-JR,,,,,,,,,,,170,177.5,-182.5,177.5,,177.5,1,63,59.90,France
Nina Le Blevenec,F,D,Raw,52,,F-M3,,,,,,,,,,,135,142.5,-147.5,142.5,,142.5,2,63,62.10,France
Coralie Beaupied,F,D,Raw,21,,F-JR,,,,,,,,,,,127.5,135,140,140,,140,1,63,60.70,France
Ina Koolhaas-Revers,F,D,Raw,77,,F-M8,,,,,,,,,,,125,130,132.5,132.5,,132.5,2,63,60.40,Netherlands
Barbara Marzi,F,D,Raw,53,,F-M3,,,,,,,,,,,-120,120,-130,120,,120,6,63,61.30,Italy
Chiara Gehrman,F,D,Raw,24,,F-SR,,,,,,,,,,,105,112.5,117.5,117.5,,117.5,1,63,63,Germany
Valeria Pancioha,F,D,Raw,15,,F-T1,,,,,,,,,,,100,110,-115,110,,110,1,63,62.60,Moldova
Nicola Bury,F,D,Raw,55,,F-M4,,,,,,,,,,,90,97.5,102.5,102.5,,102.5,1,63,61.90,Ireland
Katja Horn,F,D,Raw,49,,F-M2,,,,,,,,,,,95,,,95,,95,1,63,60.70,Netherlands
Gina Berther,F,D,Raw,29,,F-SR,,,,,,,,,,,-190,190,-195.5,190,,190,1,70,69.50,Switzerland
Britt Zwiep,F,D,Raw,21,,F-JR,,,,,,,,,,,140,155,-160,155,,155,1,70,68.90,Netherlands
Aurélie Bouniol,F,D,Raw,40,,F-M1,,,,,,,,,,,140,150,-155,150,,150,1,70,66.90,France
Sophie Estel,F,D,Raw,58,,F-M4,,,,,,,,,,,135,142.5,-150.5,142.5,,142.5,1,70,69.90,France
Cinzia Gambino,F,D,Raw,46,,F-M2,,,,,,,,,,,110,120,130,130,,130,1,70,64.50,Italy
Lene Harkjaer-Thorgie,F,D,Raw,50,,F-M3,,,,,,,,,,,-130,130,-135,130,,130,1,70,69.70,UK
Geneviève Aznar,F,D,Raw,63,,F-M5,,,,,,,,,,,110,117.5,125,125,127.5,125,1,70,66.40,France
Manon Veronon,F,D,Raw,17,,F-T2,,,,,,,,,,,115,-125,125,125,,125,2,70,68.10,France
Margie Reynolds,F,D,Raw,62,,F-M5,,,,,,,,,,,115,120,125,125,130,125,1,70,68.40,Ireland
Carole Faller,F,D,Raw,43,,F-M1,,,,,,,,,,,-107.5,-107.5,-107.5,,,,DQ,70,68,Ireland
Charlotte Penney,F,D,Raw,28,,F-SR,,,,,,,,,,,182.5,187.5,-193,187.5,,187.5,2,80,79.30,UK
Marion De Boysère,F,D,Raw,31,,F-SR,,,,,,,,,,,145,155,-165,155,,155,1,80,77.40,France
Alysia Gutteridge,F,D,Raw,18,,F-T3,,,,,,,,,,,125,135,-145,135,,135,1,80,72.70,UK
Susana Perrone,F,D,Raw,60,,F-M5,,,,,,,,,,,118,122.5,125,125,,125,1,80,78.90,Italy
Sofia Gnatiuc,F,D,Raw,16,,F-T2,,,,,,,,,,,105,-110,115,115,,115,2,80,70.70,Moldova
Helen Guerin,F,D,Raw,64,,F-M5,,,,,,,,,,,92.5,97.5,107.5,107.5,,107.5,2,80,78.60,Ireland
Emma Whiteman,F,D,Raw,43,,F-M1,,,,,,,,,,,152.5,162.5,172.5,172.5,,172.5,1,90,87.90,UK
Kim Mazet,F,D,Raw,39,,F-SR,,,,,,,,,,,145,155,165,165,,165,2,90,85.70,Belgium
Laura Bury,F,D,Raw,24,,F-SR,,,,,,,,,,,135,145,-155,145,,145,3,90,81.70,Ireland
Allison Elcoate,F,D,Raw,43,,F-M1,,,,,,,,,,,127.5,137.5,-147.5,137.5,,137.5,2,90,89.90,Australia
Tyka Whitfield,F,D,Raw,35,,F-SR,,,,,,,,,,,155,170,-177.5,170,,170,1,110,100.8,Netherlands
Peggy Biala,F,D,Raw,42,,F-M1,,,,,,,,,,,140,155,-167.5,155,,155,1,110,102.40,Ireland
Louisa Pretorius,F,D,Raw,54,,F-M3,,,,,,,,,,,130,140,-145,140,,140,1,110,100.10,UK
Kia-Re Chablis,F,D,Raw,46,,F-M2,,,,,,,,,,,150,165,180.5,180.5,-182.5,180.5,1,110+,114.80,UK
Thomas Faugeras,M,D,Raw,16,,M-T2,,,,,,,,,,,110,120,125,125,,125,1,52,52,France
Mihail Teagor,M,D,Raw,17,,M-T2,,,,,,,,,,,110,-130,-130,110,,110,2,52,52,Moldova
Mihai Toma,M,D,Raw,17,,M-T2,,,,,,,,,,,150,160,170.5,170.5,,170.5,1,56,55.40,Moldova
Victor Chirica,M,D,Raw,15,,M-T1,,,,,,,,,,,135,145.5,150,150,155,150,1,56,55.50,Moldova
Thibault Auguste,M,D,Raw,25,,M-SR,,,,,,,,,,,167.5,177.5,-182.5,177.5,,177.5,1,60,59.60,France
Mihai Ostaci,M,D,Raw,16,,M-T2,,,,,,,,,,,170,-180,-180.5,170,,170,1,60,57.50,Moldova
Ion Dobrea,M,D,Raw,19,,M-T3,,,,,,,,,,,150,170,-185,170,,170,1,60,59,Moldova
Ivan Usturoi,M,D,Raw,14,,M-T1,,,,,,,,,,,150,162.5,167.5,167.5,170,167.5,1,60,59,Moldova
Justin Kelly,M,D,Raw,50,,M-M3,,,,,,,,,,,150,160,-165,160,,160,1,60,59.30,UK
Chiril Gavdiuc,M,D,Raw,15,,M-T1,,,,,,,,,,,-155,155,,155,,155,2,60,60,Moldova
Victor-Daniel Calmic,M,D,Raw,17,,M-T2,,,,,,,,,,,170,182.5,-187.5,182.5,,182.5,1,67.5,62.30,Moldova
Anthony Pauchard,M,D,Raw,25,,M-SR,,,,,,,,,,,170,180,-187.5,180,,180,2,67.5,67,France
Cristea Buclis,M,D,Raw,15,,M-T1,,,,,,,,,,,165,175,-180,175,,175,1,67.5,63,Moldova
Roberto Gianello,M,D,Raw,69,,M-M6,,,,,,,,,,,165,170,,170,,170,1,67.5,66.60,Italy
Daniil Suspanov,M,D,Raw,15,,M-T1,,,,,,,,,,,155,165,-170,165,,165,2,67.5,63.90,Moldova
Thomas Pereira,M,D,Raw,,,M-SR,,,,,,,,,,,150,160,-180,160,,160,1,67.5,65,France
Federico Elia,M,D,Raw,15,,M-T1,,,,,,,,,,,140,145,152.5,152.5,,152.5,3,67.5,65.70,Italy
Loan Esanu,M,D,Raw,18,,M-T3,,,,,,,,,,,150,-160,,150,,150,1,67.5,63.60,Moldova
Brett Paisley,M,D,Raw,51,,M-M3,,,,,,,,,,,225,240,248.5,248.5,,248.5,1,75,72.40,UK
Thomas De Oliveria,M,D,Raw,18,,M-T3,,,,,,,,,,,232.5,242.5,-250,242.5,,242.5,1,75,73,France
David Soares,M,D,Raw,31,,M-SR,,,,,,,,,,,220,230,242.5,242.5,,242.5,3,75,73.90,France
Alessio Scarano,M,D,Raw,19,,M-T3,,,,,,,,,,,210,220,-235,220,,220,2,75,74,Italy
Petru Balabanu,M,D,Raw,29,,M-SR,,,,,,,,,,,190,205,212.5,212.5,,212.5,5,75,72.50,Moldova
Alexandre Ponnier Chalony,M,D,Raw,48,,M-M2,,,,,,,,,,,185,200,210,210,,210,1,75,74.20,France
Robert Werner,M,D,Raw,51,,M-M3,,,,,,,,,,,170,180,200,200,,200,2,75,74.50,Germany
Remi Duchene,M,D,Raw,31,,M-SR,,,,,,,,,,,190,200,-207.5,200,,200,8,75,74.70,France
Jack Wilson-Geen,M,D,Raw,17,,M-T2,,,,,,,,,,,160,180,190,190,,190,1,75,75,UK
Grigore Bunduchi,M,D,Raw,21,,M-JR,,,,,,,,,,,172.5,180,185,185,,185,1,75,74,Moldova
Jurgen Luxem,M,D,Raw,53,,M-M3,,,,,,,,,,,160,180,-200,180,,180,3,75,74.70,Germany
Massimiano Viccari,M,D,Raw,18,,M-T3,,,,,,,,,,,165,175,-185,175,,175,3,75,75,Italy
Mihai Gindea,M,D,Raw,17,,M-T2,,,,,,,,,,,165,172.5,-177.5,172.5,,172.5,2,75,74,Moldova
Ivan Bodo,M,D,Raw,17,,M-T2,,,,,,,,,,,165,167.5,170,170,,170,3,75,74.80,Italy
Patrick Tellier,M,D,Raw,68,,M-M6,,,,,,,,,,,130,140,150,150,,150,1,75,71.30,France
Llo Polese,M,D,Raw,82,,M-M9,,,,,,,,,,,125,132.5,140,140,146,140,1,75,72.40,Italy
Brian Flatman,M,D,Raw,87,,M-M10,,,,,,,,,,,100,115,-120,115,,115,1,75,75,UK
Dumitru Calmic,M,D,Raw,27,,M-SR,,,,,,,,,,,-180,,,,,,DQ,75,74.90,Moldova
Francesco Lo Porto,M,D,Raw,43,,M-M1,,,,,,,,,,,270,283.5,-287.5,283.5,,283.5,1,82.5,80.70,Italy
Cristian Busuioc,M,D,Raw,22,,M-JR,,,,,,,,,,,267.5,272.5,-278,272.5,,272.5,3,82.5,81.50,Moldova
Raffaele Villacaro,M,D,Raw,38,,M-SR,,,,,,,,,,,245,-255,-255,245,,245,2,82.5,82.50,Italy
Anis Mihoubi,M,D,Raw,20,,M-JR,,,,,,,,,,,210,220,230,230,,230,2,82.5,80.30,France
Victor Ciobanu,M,D,Raw,43,,M-M1,,,,,,,,,,,210,220,-227.5,220,,220,1,82.5,81.70,Moldova
Roman Caisîn,M,D,Raw,16,,M-T2,,,,,,,,,,,190,210,-230,210,,210,1,82.5,80.70,Moldova
Tommaso Rubino,M,D,Raw,48,,M-M2,,,,,,,,,,,172.5,182.5,192.5,192.5,,192.5,1,82.5,80,Italy
Michael Philips,M,D,Raw,69,,M-M6,,,,,,,,,,,162.5,175,182.5,182.5,,182.5,1,82.5,78.80,UK
Mihai Urabie,M,D,Raw,21,,M-JR,,,,,,,,,,,172.5,175,-180,175,,175,3,82.5,76.20,Germany
Guy Holland,M,D,Raw,63,,M-M5,,,,,,,,,,,150,160,-170,160,,160,1,82.5,81.60,UK
Henk Nijstad,M,D,Raw,66,,M-M6,,,,,,,,,,,140,-145,-145,140,,140,2,82.5,80.30,Netherlands
Felix Strong,M,D,Raw,18,,M-T3,,,,,,,,,,,275,286,-290,286,,286,1,90,88.50,Switzerland
Igor Fușcaliuc,M,D,Raw,37,,M-SR,,,,,,,,,,,250,260,265,265,,265,2,90,88.10,Moldova
Michele Lonardelli,M,D,Raw,49,,M-M2,,,,,,,,,,,240,260,-270,260,,260,1,90,89.90,Italy
Umberto Tarantino,M,D,Raw,60,,M-M5,,,,,,,,,,,215,235,240.5,240.5,-243,240.5,1,90,83.90,Italy
Kevin Van Dorsten,M,D,Raw,21,,M-JR,,,,,,,,,,,205,215,-220,215,,215,1,90,89.80,Netherlands
Henry Lynch,M,D,Raw,15,,M-T1,,,,,,,,,,,190,200,205,205,,205,1,90,87.70,UK
Mayer Wolfgang,M,D,Raw,56,,M-M4,,,,,,,,,,,167.5,172.5,-175,172.5,,172.5,1,90,87.70,Germany
Eugen Balaniuc,M,D,Raw,14,,M-T1,,,,,,,,,,,150,165,-175,165,,165,2,90,83,Moldova
Maximilian Madulin,M,D,Raw,16,,M-T2,,,,,,,,,,,150,-160,-160,150,,150,1,90,82.70,Moldova
Raffaele Nardon,M,D,Raw,49,,M-M2,,,,,,,,,,,-280,280,295,295,306.5,295,1,100,95.60,Italy
Stas Reaboi,M,D,Raw,34,,M-SR,,,,,,,,,,,265,282.5,-290,282.5,,282.5,2,100,99.10,Moldova
Norbert Kulczycki,M,D,Raw,38,,M-SR,,,,,,,,,,,260,270,275,275,,275,3,100,97.30,UK
Norman Camier,M,D,Raw,25,,M-SR,,,,,,,,,,,235,245,-250,245,,245,4,100,94.50,France
Sergiu Mîrzenco,M,D,Raw,40,,M-M1,,,,,,,,,,,230,240,,240,,240,1,100,100,Moldova
Michael Reger,M,D,Raw,64,,M-M5,,,,,,,,,,,205,217.5,225,225,,225,1,100,92,Germany
Nichita Gumeniuc,M,D,Raw,21,,M-JR,,,,,,,,,,,200,220,-230,220,,220,1,100,99.60,Moldova
Colin Kennard,M,D,Raw,52,,M-M3,,,,,,,,,,,190,210,220,220,,220,1,100,100,Ireland
Lurie Tapu,M,D,Raw,18,,M-T3,,,,,,,,,,,190,205,215,215,,215,1,100,95.60,Moldova
James Ofeciar,M,D,Raw,18,,M-T3,,,,,,,,,,,205,215,227.5,227.5,,227.5,2,100,98.90,USA
Peter Kotschenreuther,M,D,Raw,60,,M-M5,,,,,,,,,,,190,207.5,-220,207.5,,207.5,2,100,96,Germany
Stefan Gaina,M,D,Raw,19,,M-T3,,,,,,,,,,,190,200,-210,200,,200,3,100,91.20,Moldova
Pavel Cojuhari,M,D,Raw,47,,M-M2,,,,,,,,,,,197.5,,,197.5,,197.5,2,100,91,Moldova
Colin Mathers,M,D,Raw,71,,M-M7,,,,,,,,,,,170,182.5,192.5,192.5,,192.5,1,100,94.60,Switzerland
Alexandr Croitor,M,D,Raw,17,,M-T2,,,,,,,,,,,180,,,180,,180,1,100,90.30,Moldova
Danilo Ceirani,M,D,Raw,60,,M-M5,,,,,,,,,,,167.5,,,167.5,,167.5,3,100,90.30,Italy
Dorin Nistor,M,D,Raw,14,,M-T1,,,,,,,,,,,150,,,150,,150,1,100,91.70,Moldova
Sam Holland,M,D,Raw,34,,M-SR,,,,,,,,,,,-280,280,-302.5,280,,280,1,110,109.30,UK
William Courtney,M,D,Raw,41,,M-M1,,,,,,,,,,,265,-275,-275,265,,265,1,110,107.90,Ireland
Declan Counihan,M,D,Raw,60,,M-M5,,,,,,,,,,,240,255,265.5,265.5,,265.5,1,110,108.10,Ireland
Tim Clauden,M,D,Raw,42,,M-M1,,,,,,,,,,,247.5,260,-272.5,260,,260,2,110,106.20,UK
Dan Pedan,M,D,Raw,34,,M-SR,,,,,,,,,,,225,230,235,235,,235,5,110,107.70,Ireland
Cristian Bejenari,M,D,Raw,18,,M-T3,,,,,,,,,,,220,232.5,,232.5,,232.5,1,110,100.40,Moldova
Antonio Paoletta,M,D,Raw,52,,M-M3,,,,,,,,,,,205,225,-235,225,,225,1,110,102.20,Italy
Carlos Rufo,M,D,Raw,48,,M-M2,,,,,,,,,,,210,220,-230,220,,220,1,110,108.10,France
Gheorghe Druta,M,D,Raw,16,,M-T2,,,,,,,,,,,-180,180,,180,,180,1,110,100.40,Moldova
Corneliu Cosovan,M,D,Raw,14,,M-T1,,,,,,,,,,,150,160,162.5,162.5,,162.5,1,110,108.20,Moldova
Hendrik Hofman,M,D,Raw,27,,M-SR,,,,,,,,,,,255,265,267.5,267.5,,267.5,1,125,115,Germany
Dominik Fröhlich,M,D,Raw,30,,M-SR,,,,,,,,,,,240,257.5,267.5,267.5,,267.5,2,125,124,Germany
Daniil Vitkin,M,D,Raw,22,,M-JR,,,,,,,,,,,230,260,-280,260,,260,1,125,110.90,Germany
Tony Chard,M,D,Raw,55,,M-M4,,,,,,,,,,,220,245,,245,,245,1,125,123.20,France
Jos Pleogmakers,M,D,Raw,64,,M-M5,,,,,,,,,,,190,222.5,,222.5,,222.5,1,125,121.30,Netherlands
Marcel Gheldof,M,D,Raw,58,,M-M4,,,,,,,,,,,205,220,-245,220,,220,2,125,115.50,Belgium
Stanislav Uja,M,D,Raw,18,,M-T3,,,,,,,,,,,260,280,290,290,,290,1,145,131,Moldova
Martin Tetzlaff,M,D,Raw,53,,M-M3,,,,,,,,,,,205,220,,220,,220,1,145,126.20,Germany
Vladimir Soldan,M,D,Raw,15,,M-T1,,,,,,,,,,,170,180,-200,180,,180,1,145,128.60,Moldova
Victoria Maleariuc,F,D,Single-ply,15,,F-T1,,,,,,,,,,,95,105,117.5,117.5,120,117.5,1,47.5,46.90,Moldova
Nina Le Blevenec,F,D,Single-ply,52,,F-M3,,,,,,,,,,,125,135,-147.5,135,,135,1,63,62.10,France
Mihai Toma,M,D,Single-ply,17,,M-T2,,,,,,,,,,,155,165,173,173,180,173,1,56,55.40,Moldova
Victor Chirica,M,D,Single-ply,15,,M-T1,,,,,,,,,,,140.5,150,155,155,157.5,155,1,56,55.50,Moldova
Darren Boland,M,D,Single-ply,49,,M-M2,,,,,,,,,,,205,-220,-220,205,,205,1,67.5,67.10,Belgium
Roberto Gianello,M,D,Single-ply,69,,M-M6,,,,,,,,,,,180,185,-190,185,,185,1,67.5,66.60,Italy
Victor-Daniel Calmic,M,D,Single-ply,17,,M-T2,,,,,,,,,,,175,-181,-181,175,,175,1,67.5,62.30,Moldova
Patrick Tellier,M,D,Single-ply,68,,M-M6,,,,,,,,,,,162.5,172.5,-182.5,172.5,,172.5,1,75,74.90,France
Dumitru Calmic,M,D,Single-ply,27,,M-SR,,,,,,,,,,,-215,-215,,,,,DQ,75,72.90,Moldova
Cristian Busuioc,M,D,Single-ply,22,,M-JR,,,,,,,,,,,265,270,-280,270,,270,1,82.5,81.50,Moldova
Thomas Coyle,M,D,Single-ply,59,,M-M4,,,,,,,,,,,190,205,215,215,,215,1,82.5,81.80,Ireland
Roman Caisîn,M,D,Single-ply,16,,M-T2,,,,,,,,,,,195,-212.5,212.5,212.5,,212.5,1,82.5,80.70,Moldova
Coert Hoppenbrouwers,M,D,Single-ply,66,,M-M6,,,,,,,,,,,180,200,-212.5,200,,200,1,82.5,81.60,Netherlands
Benny Verbeke,M,D,Single-ply,58,,M-M4,,,,,,,,,,,260,-278,278,278,-285,278,1,90,89.60,Belgium
Igor Fușcaliuc,M,D,Single-ply,37,,M-SR,,,,,,,,,,,250,260,270,270,,270,2,90,88.10,Moldova
Stas Reaboi,M,D,Single-ply,34,,M-SR,,,,,,,,,,,265,272.5,-280,272.5,,272.5,1,100,99.10,Moldova
Emmanuel Preclaire,M,D,Single-ply,53,,M-M3,,,,,,,,,,,245,255,262.5,262.5,,262.5,1,100,96.30,France
Sergiu Mîrzenco,M,D,Single-ply,40,,M-M1,,,,,,,,,,,250,260,,260,,260,1,100,100,Moldova
Jean-Michel Mattera,M,D,Single-ply,67,,M-M6,,,,,,,,,,,190,202.5,222.5,222.5,,222.5,1,100,96.10,France
Peter Kotschenreuther,M,D,Single-ply,60,,M-M5,,,,,,,,,,,190,210,-212.5,210,,210,1,100,96,Germany
Alexandr Croitor,M,D,Single-ply,17,,M-T2,,,,,,,,,,,180,193,-200,193,,193,1,100,90.30,Moldova
Dorin Nistor,M,D,Single-ply,14,,M-T1,,,,,,,,,,,150,170,-180,170,,170,1,100,91.70,Moldova
Alexander Geitner,M,D,Single-ply,46,,M-M2,,,,,,,,,,,260,280,-290,280,,280,1,110,106,Germany
Dan Pedan,M,D,Single-ply,34,,M-SR,,,,,,,,,,,270,275,,275,,275,2,110,107.70,Ireland
Chris Pilling,M,D,Single-ply,60,,M-M5,,,,,,,,,,,215,225,235,235,,235,1,110,108.50,UK
Christopher Harrison,M,D,Single-ply,32,,M-SR,,,,,,,,,,,287.5,307.5,-326,307.5,,307.5,1,125,112.20,Ireland
Tony Chard,M,D,Single-ply,55,,M-M4,,,,,,,,,,,235,265.5,,265.5,,265.5,1,125,123.20,France
Martin Tetzlaff,M,D,Single-ply,53,,M-M3,,,,,,,,,,,-245,,,,,,DQ,145,126.20,Germany
