Division,WeightClassKg,Place,Name,Team,BodyweightKg,Best3SquatKg,Best3BenchKg,Best3DeadliftKg,TotalKg,Equipment,Event,Sex,BirthDate
Girls,44.23,1,Mia Carr,Crandall,43.45,92.99,43.09,111.13,247.21,Unlimited,SBD,F,
Girls,44.23,2,Sarai Williams,Royse City,43.73,83.91,40.82,95.25,219.99,Unlimited,SBD,F,
Girls,44.23,3,Kalli Arroyo,Midlothian,41,72.57,34.02,68.04,174.63,Unlimited,SBD,F,
Girls,47.85,1,Vivian Williams,Tyler Legacy,47.08,122.47,79.38,108.86,310.71,Unlimited,SBD,F,
Girls,47.85,2,Araceli Landaverde,Mount Pleasant,47.13,92.99,63.5,102.06,258.55,Unlimited,SBD,F,
Girls,47.85,3,Rachell Rodriguez,Whitehouse,47.54,99.79,56.7,102.06,258.55,Unlimited,SBD,F,
Girls,47.85,4,Ella Reese,Whitehouse,47.31,97.52,52.16,102.06,251.74,Unlimited,SBD,F,
Girls,47.85,5,Alex Long #2,Longview Pine Tree,46.49,99.79,45.36,104.33,249.48,Unlimited,SBD,F,
Girls,47.85,6,Mackenzie Robinson,Longview Pine Tree,46.95,97.52,47.63,102.06,247.21,Unlimited,SBD,F,
Girls,47.85,7,Zakiyah Piper,Waxahachie,45,90.72,49.9,90.72,231.33,Unlimited,SBD,F,
Girls,47.85,8,Yamile Castillo,Longview Pine Tree,45.54,92.99,52.16,79.38,224.53,Unlimited,SBD,F,
Girls,47.85,9,Karen Hernandez,Mount Pleasant,47.17,74.84,52.16,79.38,206.38,Unlimited,SBD,F,
Girls,47.85,10,Suly Figueroa,Royse City,47.4,61.23,36.29,63.5,161.03,Unlimited,SBD,F,
Girls,51.94,1,Mia Zuniga,Tyler Legacy,51.26,167.83,102.06,124.74,394.63,Unlimited,SBD,F,
Girls,51.94,2,Rachel Malloy,Longview Pine Tree,50.53,124.74,61.23,102.06,288.03,Unlimited,SBD,F,
Girls,51.94,3,Emma Walker,Lufkin,51.71,83.91,52.16,102.06,238.14,Unlimited,SBD,F,
Girls,51.94,4,Cassidy Arceneaux,Huntsville,51.71,90.72,49.9,92.99,233.6,Unlimited,SBD,F,
Girls,51.94,5,Mackenzie Kelm,Longview Pine Tree,49.85,90.72,45.36,92.99,229.06,Unlimited,SBD,F,
Girls,51.94,6,Valerie Cobb,Huntsville,49.53,79.38,43.09,104.33,226.8,Unlimited,SBD,F,
Girls,51.94,7,Sheyla Flores,Corsicana,48.08,90.72,38.56,90.72,219.99,Unlimited,SBD,F,
Girls,51.94,8,Angel Nguyen,Royse City,49.53,74.84,47.63,92.99,215.46,Unlimited,SBD,F,
Girls,51.94,9,Madison McCleery,Terrell,51.17,88.45,31.75,90.72,210.92,Unlimited,SBD,F,
Girls,51.94,10,Gabrielle Lollis,Texarkana Texas,51.39,79.38,27.22,95.25,201.85,Unlimited,SBD,F,
Girls,51.94,11,Tatum Hocker,Midlothian,50.26,77.11,47.63,74.84,199.58,Unlimited,SBD,F,
Girls,51.94,12,Audrie Mendoza,Mount Pleasant,51.66,90.72,45.36,,136.08,Unlimited,SB,F,
Girls,56.02,1,Kye'Ana Washington,Huntsville,55.61,133.81,70.31,149.69,353.8,Unlimited,SBD,F,
Girls,56.02,2,Jasmine Landaverde,Mount Pleasant,54.34,124.74,65.77,124.74,315.25,Unlimited,SBD,F,
Girls,56.02,3,Et-Prize Mbuan,Royse City,53.71,115.67,56.7,127.01,299.37,Unlimited,SBD,F,
Girls,56.02,4,Evah Mayfield,Midlothian,55.25,115.67,61.23,113.4,290.3,Unlimited,SBD,F,
Girls,56.02,5,Samara Snorton,Longview Pine Tree,52.75,120.2,49.9,108.86,278.96,Unlimited,SBD,F,
Girls,56.02,6,Joselyn Baro,Royse City,54.75,108.86,45.36,122.47,276.69,Unlimited,SBD,F,
Girls,56.02,7,Cheyanne Chanthaseng,Terrell,54.88,117.93,47.63,111.13,276.69,Unlimited,SBD,F,
Girls,56.02,8,Sunny Sickels,Greenville,52.44,102.06,43.09,117.93,263.08,Unlimited,SBD,F,
Girls,56.02,9,Ava Mendez,Lufkin,54.98,97.52,52.16,106.59,256.28,Unlimited,SBD,F,
Girls,56.02,10,Sadie Coe,Greenville,55.16,92.99,47.63,90.72,231.33,Unlimited,SBD,F,
Girls,56.02,11,Dori Macedo,Mount Pleasant,53.16,88.45,20.41,97.52,206.38,Unlimited,SBD,F,
Girls,56.02,12,Brianna Acevado,Waxahachie,51.98,65.77,38.56,68.04,172.37,Unlimited,SBD,F,
Girls,56.02,DQ,Braylee Glasscock,Whitehouse,55.47,,,,,Unlimited,SBD,F,
Girls,60.1,1,Are'anna Gill,Marshall,58.6,138.35,77.11,154.22,369.68,Unlimited,SBD,F,
Girls,60.1,2,Lyndsay Giles,Waxahachie,56.88,124.74,70.31,145.15,340.19,Unlimited,SBD,F,
Girls,60.1,3,Anna Moreland,Tyler Legacy,58.97,124.74,88.45,124.74,337.93,Unlimited,SBD,F,
Girls,60.1,4,Alyson Roberson,Marshall,57.7,127.01,74.84,122.47,324.32,Unlimited,SBD,F,
Girls,60.1,5,Noelle Feiden,Whitehouse,57.88,117.93,58.97,120.2,297.1,Unlimited,SBD,F,
Girls,60.1,6,Amya Anderson,Royse City,59.01,113.4,52.16,113.4,278.96,Unlimited,SBD,F,
Girls,60.1,7,Elicya Wilson,Royse City,56.06,106.59,56.7,113.4,276.69,Unlimited,SBD,F,
Girls,60.1,8,Hannah Spkies,Lufkin,57.88,108.86,56.7,111.13,276.69,Unlimited,SBD,F,
Girls,60.1,9,Annabel Valdez,Waxahachie,59.06,102.06,47.63,127.01,276.69,Unlimited,SBD,F,
Girls,60.1,10,Ava Glenn,Ennis,57.79,111.13,52.16,106.59,269.89,Unlimited,SBD,F,
Girls,60.1,11,Jordan West,Mount Pleasant,56.25,102.06,65.77,83.91,251.74,Unlimited,SBD,F,
Girls,60.1,12,Dawn Haddox,Midlothian,58.24,95.25,52.16,102.06,249.48,Unlimited,SBD,F,
Girls,60.1,DQ,Cassandra Lopez,Lufkin,59.51,,,,,Unlimited,SBD,F,
Girls,67.36,1,Leslie Medina,Huntsville,62.6,181.44,88.45,170.1,439.98,Unlimited,SBD,F,
Girls,67.36,2,Alexandra Martinez #3,Mount Pleasant,63.64,161.03,95.25,142.88,399.16,Unlimited,SBD,F,
Girls,67.36,3,Erkya Furlong,Longview Pine Tree,66.5,163.29,83.91,122.47,369.68,Unlimited,SBD,F,
Girls,67.36,4,Ashley Watt,Longview Pine Tree,62.6,133.81,90.72,122.47,347,Unlimited,SBD,F,
Girls,67.36,5,Ava Burke,Marshall,62.05,131.54,72.57,127.01,331.12,Unlimited,SBD,F,
Girls,67.36,6,Emma Williams,Whitehouse,65.59,122.47,77.11,127.01,326.59,Unlimited,SBD,F,
Girls,67.36,7,Madison Coyle,Greenville,65.32,131.54,63.5,120.2,315.25,Unlimited,SBD,F,
Girls,67.36,8,Valerie Martin,Huntsville,61.42,136.08,61.23,113.4,310.71,Unlimited,SBD,F,
Girls,67.36,9,Hannah Brooks,Midlothian,63.23,115.67,58.97,131.54,306.17,Unlimited,SBD,F,
Girls,67.36,10,Jessica Hadnot,Lufkin,65.77,122.47,65.77,117.93,306.17,Unlimited,SBD,F,
Girls,67.36,11,Kennedee Canales,Midlothian,66.5,127.01,61.23,117.93,306.17,Unlimited,SBD,F,
Girls,67.36,12,Fiona Harlan,Forney,64.14,120.2,72.57,111.13,303.91,Unlimited,SBD,F,
Girls,67.36,13,Zoe Zittel,Mount Pleasant,60.33,120.2,61.23,111.13,292.57,Unlimited,SBD,F,
Girls,67.36,14,Hannah Alaniz,Royse City,61.92,97.52,56.7,111.13,265.35,Unlimited,SBD,F,
Girls,67.36,15,Gracie Albritton,Tyler Legacy,66.13,99.79,58.97,106.59,265.35,Unlimited,SBD,F,
Girls,67.36,16,Lark Hesskew,Tyler Legacy,62.78,83.91,58.97,99.79,242.67,Unlimited,SBD,F,
Girls,67.36,17,Madison Morris,Royse City,60.42,90.72,43.09,99.79,233.6,Unlimited,SBD,F,
Girls,67.36,18,Isabelle Wright,Waxahachie,64.14,102.06,38.56,90.72,231.33,Unlimited,SBD,F,
Girls,67.36,19,Nestasia Lee,North Forney,61.6,58.97,31.75,102.06,192.78,Unlimited,SBD,F,
Girls,75.07,1,Fatima Amaya,Royse City,71.85,179.17,86.18,170.1,435.45,Unlimited,SBD,F,
Girls,75.07,2,Maddie Hodges,Midlothian,73.66,140.61,81.65,172.37,394.63,Unlimited,SBD,F,
Girls,75.07,3,Wendy Esuivel,Marshall,72.39,158.76,74.84,140.61,374.21,Unlimited,SBD,F,
Girls,75.07,4,Angie Pham,Marshall,73.21,142.88,77.11,145.15,365.14,Unlimited,SBD,F,
Girls,75.07,5,Sara Lopez,Corsicana,72.39,145.15,65.77,138.35,349.27,Unlimited,SBD,F,
Girls,75.07,6,Zoe Elliot,Longview Pine Tree,72.98,142.88,72.57,129.27,344.73,Unlimited,SBD,F,
Girls,75.07,7,Shaelyn Riley,Huntsville,73.21,124.74,79.38,138.35,342.46,Unlimited,SBD,F,
Girls,75.07,8,Heaven Gruzins,Corsicana,71.4,127.01,61.23,149.69,337.93,Unlimited,SBD,F,
Girls,75.07,9,Harlee Henson,Royse City,72.85,136.08,54.43,124.74,315.25,Unlimited,SBD,F,
Girls,75.07,10,Jiya Mistry,Marshall,70.76,108.86,70.31,127.01,306.17,Unlimited,SBD,F,
Girls,75.07,11,Olivia Lemmert,Tyler Legacy,73.66,102.06,90.72,111.13,303.91,Unlimited,SBD,F,
Girls,75.07,12,Ainsleigh Walton,Midlothian,72.48,122.47,63.5,113.4,299.37,Unlimited,SBD,F,
Girls,75.07,13,Jessica Leon,Nacogdoches,69.31,113.4,49.9,115.67,278.96,Unlimited,SBD,F,
Girls,75.07,14,Emery Martin,Tyler Legacy,73.07,104.33,65.77,106.59,276.69,Unlimited,SBD,F,
Girls,75.07,15,Savannah Santiago,Royse City,72.08,102.06,47.63,90.72,240.4,Unlimited,SBD,F,
Girls,82.33,1,Nina Holm,Royse City,76.93,165.56,111.13,145.15,421.84,Unlimited,SBD,F,
Girls,82.33,2,Allie Parker,Tyler Legacy,80.47,142.88,108.86,163.29,415.04,Unlimited,SBD,F,
Girls,82.33,3,Emma Thomas,Whitehouse,79.11,147.42,81.65,147.42,376.48,Unlimited,SBD,F,
Girls,82.33,4,Olivia Lummus,Longview Pine Tree,75.39,138.35,79.38,124.74,342.46,Unlimited,SBD,F,
Girls,82.33,5,Chadea Gipson,Longview Pine Tree,81.1,142.88,86.18,111.13,340.19,Unlimited,SBD,F,
Girls,82.33,6,Saniya Milton,Mount Pleasant,76.75,124.74,74.84,138.35,337.93,Unlimited,SBD,F,
Girls,82.33,7,Aaliyah Robinson,Longview Pine Tree,78.93,147.42,65.77,124.74,337.93,Unlimited,SBD,F,
Girls,82.33,8,Chloe Steber,Longview Pine Tree,77.93,142.88,56.7,127.01,326.59,Unlimited,SBD,F,
Girls,82.33,9,Xitlaly Sanchez,Mount Pleasant,80.47,129.27,83.91,113.4,326.59,Unlimited,SBD,F,
Girls,82.33,10,Nicole Magouirk,Whitehouse,76.29,117.93,72.57,129.27,319.78,Unlimited,SBD,F,
Girls,82.33,11,Trinity Roberts,Whitehouse,76.93,113.4,68.04,122.47,303.91,Unlimited,SBD,F,
Girls,82.33,12,Lyndsey McCauley,Midlothian,75.21,113.4,70.31,102.06,285.76,Unlimited,SBD,F,
Girls,82.33,13,Kamilah Martinez,Royse City,77.66,117.93,49.9,111.13,278.96,Unlimited,SBD,F,
Girls,82.33,14,Londen Whelchel,Tyler Legacy,79.47,131.54,86.18,,217.72,Unlimited,SB,F,
Girls,90.04,1,Nayeli Jaimes,Mount Pleasant,82.55,197.31,129.27,174.63,501.22,Unlimited,SBD,F,
Girls,90.04,2,Ahjia James,Marshall,82.92,170.1,90.72,170.1,430.91,Unlimited,SBD,F,
Girls,90.04,3,Lillyenne Barnes,Huntsville,84.82,154.22,88.45,172.37,415.04,Unlimited,SBD,F,
Girls,90.04,4,McKinsee Oviedo,Mount Pleasant,86.73,151.95,108.86,142.88,403.7,Unlimited,SBD,F,
Girls,90.04,5,Lindsay McManus,Ennis,87.27,170.1,83.91,142.88,396.89,Unlimited,SBD,F,
Girls,90.04,6,Lexi Chandler,Waxahachie,88.63,161.03,83.91,142.88,387.82,Unlimited,SBD,F,
Girls,90.04,7,Lily Webb,Ennis,86.91,131.54,81.65,149.69,362.87,Unlimited,SBD,F,
Girls,90.04,8,Shylar McKenzie,Midlothian,88.9,147.42,81.65,124.74,353.8,Unlimited,SBD,F,
Girls,90.04,9,Gracie Rust,Longview Pine Tree,86.45,142.88,65.77,136.08,344.73,Unlimited,SBD,F,
Girls,90.04,10,Jenna Cook,Mount Pleasant,83.69,129.27,74.84,138.35,342.46,Unlimited,SBD,F,
Girls,90.04,11,Joanna Saah,North Forney,87.54,127.01,63.5,131.54,322.05,Unlimited,SBD,F,
Girls,90.04,12,Natalie Pena,Tyler Legacy,89.81,108.86,61.23,113.4,283.5,Unlimited,SBD,F,
Girls,90.04,13,Briana Walker,Tyler Legacy,84.1,113.4,58.97,104.33,276.69,Unlimited,SBD,F,
Girls,90.04,14,Kalea Phillips,Tyler Legacy,86.73,113.4,47.63,108.86,269.89,Unlimited,SBD,F,
Girls,90.04,15,Camila Cantreras,Tyler Legacy,88.99,108.86,56.7,102.06,267.62,Unlimited,SBD,F,
Girls,90.04,16,Makayla Warren,North Forney,87,95.25,63.5,99.79,258.55,Unlimited,SBD,F,
Girls,90.04,17,Lauren Minatrea,Marshall,83.28,149.69,99.79,,249.48,Unlimited,SB,F,
Girls,90.04,18,Cassandra Jamies,Waxahachie,84.01,117.93,58.97,,176.9,Unlimited,SB,F,
Girls,100.02,1,Haley Gardella,Royse City,98.02,201.85,127.01,192.78,521.63,Unlimited,SBD,F,
Girls,100.02,2,Molly Greeson,Midlothian,96.07,172.37,92.99,151.95,417.3,Unlimited,SBD,F,
Girls,100.02,3,Aderice Wheeler,Texarkana Texas,94.53,158.76,86.18,158.76,403.7,Unlimited,SBD,F,
Girls,100.02,4,Janiyah Taylor,Longview Pine Tree,98.79,167.83,88.45,140.61,396.89,Unlimited,SBD,F,
Girls,100.02,5,Alexa Thompson,Whitehouse,97.61,151.95,90.72,142.88,385.55,Unlimited,SBD,F,
Girls,100.02,6,Natalie Gibson,Greenville,94.53,131.54,79.38,151.95,362.87,Unlimited,SBD,F,
Girls,100.02,7,Cailyn Davis,Royse City,90.99,133.81,79.38,142.88,356.07,Unlimited,SBD,F,
Girls,100.02,8,Esmeralda Guillen,North Forney,94.89,133.81,61.23,136.08,331.12,Unlimited,SBD,F,
Girls,100.02,9,Sydnie Nelson,Texarkana Texas,91.81,129.27,52.16,138.35,319.78,Unlimited,SBD,F,
Girls,100.02,10,Lela Hollis,Huntsville,97.43,127.01,63.5,124.74,315.25,Unlimited,SBD,F,
Girls,100.02,11,Mariah Jenkins,Nacogdoches,92.17,120.2,65.77,127.01,312.98,Unlimited,SBD,F,
Girls,117.71,1,Aja Bostic,Royse City,101.74,233.6,124.74,174.63,532.97,Unlimited,SBD,F,
Girls,117.71,2,Kellsy Blue-Johnson,Marshall,111.58,188.24,79.38,188.24,455.86,Unlimited,SBD,F,
Girls,117.71,3,Leslee Jones,Corsicana,106.5,176.9,92.99,165.56,435.45,Unlimited,SBD,F,
Girls,117.71,4,Jynis Doze,Huntsville,104.87,176.9,74.84,145.15,396.89,Unlimited,SBD,F,
Girls,117.71,5,Cheyenne Ethridge,Longview Pine Tree,110.31,158.76,104.33,122.47,385.55,Unlimited,SBD,F,
Girls,117.71,6,Madelyne Barkley,Longview Pine Tree,114.21,147.42,83.91,154.22,385.55,Unlimited,SBD,F,
Girls,117.71,7,Rylee Wallingsford,Midlothian,116.03,151.95,79.38,131.54,362.87,Unlimited,SBD,F,
Girls,117.71,8,Cara Palmer,Royse City,108.36,147.42,81.65,122.47,351.53,Unlimited,SBD,F,
Girls,117.71,9,Darmesha Evans,Huntsville,105.19,127.01,83.91,136.08,347,Unlimited,SBD,F,
Girls,117.71,10,Savannah Fisher,Whitehouse,104.42,124.74,81.65,133.81,340.19,Unlimited,SBD,F,
Girls,117.71,11,Janiyah Teal,Nacogdoches,105.87,102.06,74.84,113.4,290.3,Unlimited,SBD,F,
Girls,117.71+,1,Laikahs Kelly,Corsicana,118.93,226.8,99.79,185.97,512.56,Unlimited,SBD,F,
Girls,117.71+,2,Madison Wright,Marshall,133.36,226.8,86.18,172.37,485.34,Unlimited,SBD,F,
Girls,117.71+,3,Aniyah Jones,Marshall,136.53,201.85,90.72,151.95,444.52,Unlimited,SBD,F,
Girls,117.71+,4,Mackenzie Piper,Whitehouse,132.99,213.19,79.38,138.35,430.91,Unlimited,SBD,F,
Girls,117.71+,5,Jamesha Skinner,Nacogdoches,122.38,151.95,81.65,151.95,385.55,Unlimited,SBD,F,
Girls,117.71+,6,Gloria Jaramillo,Hallsville,135.99,158.76,95.25,131.54,385.55,Unlimited,SBD,F,
Girls,117.71+,7,Autumn Wilderson,Royse City,129.27,113.4,86.18,142.88,342.46,Unlimited,SBD,F,
Girls,117.71+,8,Saniyah Luckey,Texarkana Texas,131.63,115.67,68.04,111.13,294.84,Unlimited,SBD,F,
Girls,117.71+,9,Zaryiah Henderson,Terrell,133.9,97.52,61.23,102.06,260.82,Unlimited,SBD,F,
Girls,117.71+,DQ,Logan Hurd,Marshall,149.41,,,,,Unlimited,SBD,F,
Girls,,NS,Rehema Waweru,North Forney,,86.18,34.02,83.91,,Unlimited,SBD,F,
