Division,WeightClassKg,Place,Name,Team,BodyweightKg,Best3SquatKg,Best3BenchKg,Best3DeadliftKg,TotalKg,Equipment,Event,Sex
Boys,51.71,1,Viator Gomez,Mertzon Irion County,51.26,170.1,86.18,147.42,403.7,Single-ply,SBD,M
Boys,51.71,2,Talon Romero,Amarillo Highland Park,51.07,136.08,88.45,151.95,376.48,Single-ply,SBD,M
Boys,51.71,3,Vincenzo Mesza,Bovina,51.17,138.35,88.45,142.88,369.68,Single-ply,SBD,M
Boys,51.71,4,Ryan Folds,San Angelo Grape Creek,50.08,147.42,65.77,129.27,342.46,Single-ply,SBD,M
Boys,51.71,5,Evan Paez,Muleshoe,51.71,127.01,68.04,140.61,335.66,Single-ply,SBD,M
Boys,51.71,6,Anthony Lara,Colorado City Colorado,50.98,129.27,65.77,133.81,328.85,Single-ply,SBD,M
Boys,51.71,7,Gage Rigdon,Meadow,51.44,120.2,56.7,142.88,319.78,Single-ply,SBD,M
Boys,51.71,8,Philip Rocha,Slaton,51.62,113.4,70.31,129.27,312.98,Single-ply,SBD,M
Boys,51.71,9,Mario Hernandez,Friona,50.71,106.59,58.97,122.47,288.03,Single-ply,SBD,M
Boys,51.71,DQ,Joseph Martinez,Colorado City Colorado,51.44,136.08,,,,Single-ply,SBD,M
Boys,51.71,NS,Brandon Luevano,Haskell Paint Creek,,,,,,Single-ply,SBD,M
Boys,59.87,1,Raymon Aranda,Seagraves,56.02,170.1,97.52,181.44,449.06,Single-ply,SBD,M
Boys,55.79,2,Triston Davis,Sundown,54.43,170.1,90.72,163.29,424.11,Single-ply,SBD,M
Boys,55.79,3,Jonathan Michaels,Tuscola Jim Ned,54.98,142.88,102.06,142.88,387.82,Single-ply,SBD,M
Boys,55.79,4,Arturo Rodriguez,Meadow,55.7,140.61,83.91,163.29,387.82,Single-ply,SBD,M
Boys,55.79,5,Stanley Stevens,Ranger,55.16,154.22,79.38,147.42,381.02,Single-ply,SBD,M
Boys,55.79,6,Bryan Tran,Amarillo Highland Park,54.88,138.35,79.38,158.76,376.48,Single-ply,SBD,M
Boys,55.79,7,Callum Hurst,Coahoma,54.43,154.22,81.65,138.35,374.21,Single-ply,SBD,M
Boys,55.79,8,Oscar Ortiz,Big Lake Reagan County,55.43,124.74,70.31,142.88,337.93,Single-ply,SBD,M
Boys,55.79,DQ,Andrew Craft,Clyde,53.25,124.74,,,,Single-ply,SBD,M
Boys,55.79,DQ,Gilbert Borrego,Merkel,53.61,129.27,83.91,,,Single-ply,SBD,M
Boys,55.79,NS,Lucas Diaz,Santa Anna,,,,,,Single-ply,SBD,M
Boys,59.87,1,David Watson #4,Seymour,58.33,183.7,104.33,190.51,478.54,Single-ply,SBD,M
Boys,59.87,2,Dillon Hughes,Sterling City,59.24,183.7,108.86,181.44,474,Single-ply,SBD,M
Boys,67.13,3,Luis Trejo,Friona,60.1,185.97,106.59,176.9,469.47,Single-ply,SBD,M
Boys,59.87,4,Ismael Ramirez,Garden City,59.15,161.03,95.25,190.51,446.79,Single-ply,SBD,M
Boys,59.87,5,Johnny Hernandez,Sundown,59.87,181.44,83.91,181.44,446.79,Single-ply,SBD,M
Boys,59.87,6,JD Rojas,Lubbock Roosevelt,58.51,145.15,104.33,190.51,439.98,Single-ply,SBD,M
Boys,59.87,7,Hector Bustillos,Sunray,59.6,163.29,81.65,181.44,426.38,Single-ply,SBD,M
Boys,59.87,8,Glenn Crowder,Iraan,59.06,147.42,79.38,172.37,399.16,Single-ply,SBD,M
Boys,67.13,9,Mark Marquez,Dimmitt,60.06,127.01,86.18,142.88,356.07,Single-ply,SBD,M
Boys,59.87,DQ,Matt Anderson,Coleman,59.06,,,,,Single-ply,SBD,M
Boys,67.13,1,Eli Rodriguez #1,Seagraves,66.77,226.8,113.4,217.72,557.92,Single-ply,SBD,M
Boys,74.84,2,Robert Sauceda,Ballinger,67.36,208.65,117.93,201.85,528.44,Single-ply,SBD,M
Boys,67.13,3,Oscar Narvaez,Mertzon Irion County,66.59,195.04,102.06,190.51,487.61,Single-ply,SBD,M
Boys,74.84,4,Tyler Johnson,Slaton,67.36,208.65,95.25,183.7,487.61,Single-ply,SBD,M
Boys,67.13,5,Kevin Martínez,Sonora,66.22,181.44,97.52,199.58,478.54,Single-ply,SBD,M
Boys,74.84,6,Peyton Ledbetter,Farwell,67.31,181.44,108.86,188.24,478.54,Single-ply,SBD,M
Boys,67.13,7,Braedan Groat,Roby,65.05,174.63,95.25,195.04,464.93,Single-ply,SBD,M
Boys,67.13,8,Oscar Salgado,Alpine,64.05,158.76,106.59,188.24,453.59,Single-ply,SBD,M
Boys,67.13,9,Layton Lamberson,Panhandle,67.13,154.22,108.86,190.51,453.59,Single-ply,SBD,M
Boys,67.13,NS,Tanner Turner,Merkel,,,,,,Single-ply,SBD,M
Boys,74.84,1,Tate Richards,Springlake Earth,74.12,226.8,163.29,233.6,623.69,Single-ply,SBD,M
Boys,74.84,2,Dante Gomez,Clyde,74.48,233.6,136.08,229.06,598.74,Single-ply,SBD,M
Boys,74.84,3,John Jurado,Ozona,72.57,240.4,124.74,224.53,589.67,Single-ply,SBD,M
Boys,82.1,4,Marcus Ruff,Whiteface,74.93,222.26,133.81,231.33,587.4,Single-ply,SBD,M
Boys,74.84,5,Jon Chavez,Sundown,74.03,235.87,102.06,226.8,564.72,Single-ply,SBD,M
Boys,74.84,6,Michael Key,Lamesa Klondike,74.21,188.24,104.33,217.72,510.29,Single-ply,SBD,M
Boys,74.84,7,Fabian Honesto,Whiteface,73.94,199.58,102.06,201.85,503.49,Single-ply,SBD,M
Boys,74.84,8,Matthew Gloria,Ballinger,72.39,206.38,83.91,208.65,498.95,Single-ply,SBD,M
Boys,74.84,9,Matthew Ramirez,Roby,74.66,181.44,136.08,172.37,489.88,Single-ply,SBD,M
Boys,74.84,DQ,Isaac Fraire,Sonora,73.57,188.24,102.06,183.7,,Single-ply,SBD,M
Boys,74.84,DQ,Kaleb Moore,Clyde,74.66,170.1,117.93,172.37,,Single-ply,SBD,M
Boys,74.84,DQ,Caleb Wilson,Mertzon Irion County,72.57,235.87,115.67,,,Single-ply,SBD,M
Boys,82.1,1,Cris Stallings,Kermit,80.38,217.72,158.76,238.14,614.62,Single-ply,SBD,M
Boys,82.1,2,Brett Castillo,Sonora,81.74,229.06,145.15,231.33,605.55,Single-ply,SBD,M
Boys,82.1,3,Zach Denny,Kermit,81.37,217.72,136.08,231.33,585.13,Single-ply,SBD,M
Boys,89.81,4,Alex Guerrero #2,Childress,82.19,190.51,122.47,240.4,553.38,Single-ply,SBD,M
Boys,89.81,5,Steven Kirk,Ballinger,82.33,210.92,127.01,208.65,546.58,Single-ply,SBD,M
Boys,82.1,6,Rene Rodriguez,Friona,79.74,215.46,127.01,192.78,535.24,Single-ply,SBD,M
Boys,82.1,7,Blaine McGregor,Amarillo Highland Park,81.19,201.85,127.01,183.7,512.56,Single-ply,SBD,M
Boys,82.1,8,Braxton Creager,Slaton,80.47,188.24,102.06,215.46,505.76,Single-ply,SBD,M
Boys,82.1,DQ,Link Wilkes,Sundown,77.29,181.44,108.86,201.85,,Single-ply,SBD,M
Boys,82.1,DQ,Zach Gartman,Cross Plains,81.92,208.65,102.06,188.24,,Single-ply,SBD,M
Boys,82.1,DQ,Jacob Guzman,Hermleigh,80.83,,,,,Single-ply,SBD,M
Boys,82.1,DQ,Josh Neri,Mertzon Irion County,80.29,204.12,142.88,,,Single-ply,SBD,M
Boys,89.81,1,Xavier Garza,Sundown,89.54,258.55,140.61,249.48,648.64,Single-ply,SBD,M
Boys,89.81,2,Joe Melendez,Coahoma,88.63,249.48,145.15,240.4,635.03,Single-ply,SBD,M
Boys,99.79,3,Mario Flores,Memphis,90.04,226.8,124.74,267.62,619.15,Single-ply,SBD,M
Boys,89.81,4,Dalton Gray,Anton,88.09,226.8,127.01,235.87,589.67,Single-ply,SBD,M
Boys,89.81,5,Ladd Wilkes,Sundown,84.46,195.04,133.81,215.46,544.31,Single-ply,SBD,M
Boys,89.81,6,Courtney Gravely,Amarillo Highland Park,88.27,190.51,140.61,208.65,539.77,Single-ply,SBD,M
Boys,89.81,7,Bryson Kitchens,Abernathy,87.63,215.46,113.4,206.38,535.24,Single-ply,SBD,M
Boys,89.81,8,Chris Amador,Mertzon Irion County,87.27,213.19,117.93,195.04,526.17,Single-ply,SBD,M
Boys,89.81,9,Juan Samarron,Friona,87.36,204.12,117.93,190.51,512.56,Single-ply,SBD,M
Boys,99.79,DQ,Ryland Madrid,Roscoe Collegiate,89.9,206.38,106.59,195.04,,Single-ply,SBD,M
Boys,89.81,DQ,Nathan Besler,Brownfield,86.36,,,,,Single-ply,SBD,M
Boys,89.81,DQ,Eduardo Hernandez,Denver City,86.82,,,,,Single-ply,SBD,M
Boys,99.79,1,Aaron Chavarria,Floydada,98.43,278.96,158.76,229.06,666.78,Single-ply,SBD,M
Boys,109.77,2,JD Esquivel,Big Lake Reagan County,100.02,263.08,124.74,238.14,625.96,Single-ply,SBD,M
Boys,99.79,3,Alex Perez,San Angelo Grape Creek,95.07,247.21,133.81,219.99,601.01,Single-ply,SBD,M
Boys,99.79,4,Isaiah Marquez #1,Kermit,96.62,235.87,129.27,208.65,573.79,Single-ply,SBD,M
Boys,109.77,5,Tristan Hernandez,Dimmitt,99.97,222.26,124.74,222.26,569.26,Single-ply,SBD,M
Boys,99.79,6,Kevin Flores,Sunray,96.43,226.8,124.74,213.19,564.72,Single-ply,SBD,M
Boys,99.79,7,Dalton Gilliam,Cross Plains,90.72,208.65,131.54,206.38,546.58,Single-ply,SBD,M
Boys,99.79,8,Gabriel Reynoza,Hermleigh,98.25,192.78,129.27,204.12,526.17,Single-ply,SBD,M
Boys,99.79,9,Harley Simpson,Slaton,96.34,204.12,120.2,183.7,508.02,Single-ply,SBD,M
Boys,99.79,DQ,David Camargo,Slaton,93.89,206.38,113.4,185.97,,Single-ply,SBD,M
Boys,109.77,DQ,Eric Vela,Dimmitt,100.02,188.24,136.08,197.31,,Single-ply,SBD,M
Boys,99.79,DQ,Jon Mathews,Tuscola Jim Ned,98.79,231.33,117.93,,,Single-ply,SBD,M
Boys,109.77,1,Haddan Stokes,Clyde,107.23,294.84,165.56,242.67,703.07,Single-ply,SBD,M
Boys,109.77,2,Gavin Flores,Dimmitt,109.32,235.87,142.88,224.53,603.28,Single-ply,SBD,M
Boys,109.77,3,David Madore,Ranger,109.36,238.14,151.95,210.92,601.01,Single-ply,SBD,M
Boys,109.77,4,Taylor Morin #1,Forsan,105.32,272.16,113.4,208.65,594.21,Single-ply,SBD,M
Boys,109.77,5,Mikey Taylor,Merkel,109.13,226.8,131.54,229.06,587.4,Single-ply,SBD,M
Boys,109.77,6,Lj Rodriguez,Dimmitt,104.24,219.99,120.2,213.19,553.38,Single-ply,SBD,M
Boys,109.77,7,Scott Martin,Dimmitt,106.96,213.19,117.93,217.72,548.85,Single-ply,SBD,M
Boys,109.77,DQ,Marcial Salinas,Slaton,108.68,213.19,104.33,213.19,,Single-ply,SBD,M
Boys,109.77,DQ,Ethan Patlan,Sonora,105.32,213.19,170.1,,,Single-ply,SBD,M
Boys,109.77,DQ,Zak Walton,Coahoma,107.86,272.16,,,,Single-ply,SBD,M
Boys,109.77,DQ,Angel DeLuna,Big Lake Reagan County,107.23,278.96,,,,Single-ply,SBD,M
Boys,124.74,1,Antonio Perez,San Angelo Grape Creek,122.47,260.82,190.51,233.6,684.92,Single-ply,SBD,M
Boys,124.74,2,Marcus Sandoval,Springlake Earth,123.38,272.16,190.51,215.46,678.12,Single-ply,SBD,M
Boys,124.74,3,Jeremiah DeLeon,Tahoka,114.85,272.16,181.44,215.46,669.05,Single-ply,SBD,M
Boys,124.74,4,Adrian Hernandez #5,San Angelo Grape Creek,112.13,254.01,151.95,238.14,644.1,Single-ply,SBD,M
Boys,124.74,5,David Rodriguez #11,Muleshoe,116.85,274.42,147.42,217.72,639.57,Single-ply,SBD,M
Boys,124.74,6,Elijah Cross,Sonora,110.5,258.55,145.15,222.26,625.96,Single-ply,SBD,M
Boys,124.74,7,Hl James,Sonora,114.85,265.35,108.86,235.87,610.08,Single-ply,SBD,M
Boys,124.74,8,Rowdy Islas,Ballinger,115.21,265.35,151.95,190.51,607.81,Single-ply,SBD,M
Boys,124.74,9,Israel Beltran,Colorado City Colorado,113.22,229.06,154.22,215.46,598.74,Single-ply,SBD,M
Boys,124.74,DQ,Israel Rosalez,Seagraves,114.4,244.94,167.83,190.51,,Single-ply,SBD,M
Boys,124.74,DQ,Jet Grant,Sundown,114.31,208.65,154.22,204.12,,Single-ply,SBD,M
Boys,124.74,DQ,Philip Bacon,Coahoma,124.28,233.6,154.22,,,Single-ply,SBD,M
Boys,124.74+,1,Edgar Guerrero,Friona,138.98,340.19,204.12,294.84,839.15,Single-ply,SBD,M
Boys,124.74+,2,Kelton Bales,Iraan,126.64,290.3,140.61,249.48,680.39,Single-ply,SBD,M
Boys,124.74+,3,Ernie Veloz,Big Lake Reagan County,135.44,283.5,142.88,226.8,653.17,Single-ply,SBD,M
Boys,124.74+,4,Tom Rivera,Colorado City Colorado,210.92,272.16,158.76,195.04,625.96,Single-ply,SBD,M
Boys,124.74+,5,Santos Jackson,Dimmitt,145.78,263.08,129.27,231.33,623.69,Single-ply,SBD,M
Boys,124.74+,6,Tony Garcia,Tahoka,168.92,204.12,104.33,195.04,503.49,Single-ply,SBD,M
Boys,124.74+,7,Justin Perez,Farwell,125.46,190.51,124.74,181.44,496.68,Single-ply,SBD,M
Boys,124.74+,8,Price Cooper,Lamesa Klondike,125.01,185.97,111.13,190.51,487.61,Single-ply,SBD,M
Boys,124.74+,DQ,Alek Garcia,Slaton,153.22,192.78,81.65,199.58,,Single-ply,SBD,M
Boys,124.74+,DQ,AJ Garcia,Slaton,167.83,,,,,Single-ply,SBD,M
Boys,124.74+,DQ,Joseph Villarreal,Lubbock Roosevelt,135.9,231.33,,,,Single-ply,SBD,M
Boys,124.74+,DQ,Taydon Benson,Coleman,163.93,,,,,Single-ply,SBD,M
