Division,WeightClassKg,Place,Name,Team,BodyweightKg,Best3SquatKg,Best3BenchKg,Best3DeadliftKg,TotalKg,Equipment,Event,Sex,BirthDate
Boys,51.71,1,Armando Garcia,Los Fresnos,51.71,154.22,83.91,185.97,424.11,Unlimited,SBD,M,
Boys,51.71,2,Travis Galindo,Brownsville Veterans Memorial,50.89,113.4,65.77,120.2,299.37,Unlimited,SBD,M,
Boys,51.71,3,Roger Hernandez,Weslaco,46.36,63.5,40.82,81.65,185.97,Unlimited,SBD,M,
Boys,55.79,1,Jacob Acevedo,Weslaco,52.21,136.08,99.79,136.08,371.95,Unlimited,SBD,M,
Boys,55.79,2,Jaysin Espinoza,Harlingen,54.93,92.99,61.23,102.06,256.28,Unlimited,SBD,M,
Boys,55.79,3,Pedro Gutierrez,Weslaco East,52.62,70.31,38.56,72.57,181.44,Unlimited,SBD,M,
Boys,55.79,DQ,Joshua Arroyo,Weslaco,54.48,133.81,,,,Unlimited,SBD,M,
Boys,59.87,1,Sal Packowski,Los Fresnos,57.79,151.95,99.79,161.03,412.77,Unlimited,SBD,M,
Boys,59.87,2,Deandre Trejo,Brownsville Hanna,57.15,133.81,70.31,138.35,342.46,Unlimited,SBD,M,
Boys,67.13,1,Brandon Cantu,Brownsville Hanna,66.72,183.7,115.67,199.58,498.95,Unlimited,SBD,M,
Boys,67.13,2,Kyle Garcia,Weslaco East,64.95,172.37,131.54,192.78,496.68,Unlimited,SBD,M,
Boys,67.13,3,Bryeden Bautista,Brownsville Hanna,65.95,151.95,102.06,161.03,415.04,Unlimited,SBD,M,
Boys,67.13,4,Hunter Totman,Harlingen,65.41,161.03,88.45,151.95,401.43,Unlimited,SBD,M,
Boys,67.13,5,Michael Rodriguez,Los Fresnos,62.19,170.1,95.25,131.54,396.89,Unlimited,SBD,M,
Boys,67.13,6,Aaron Reyes,Harlingen,66.27,138.35,88.45,142.88,369.68,Unlimited,SBD,M,
Boys,67.13,DQ,Ethan Cantu,Harlingen,67.13,151.95,,,,Unlimited,SBD,M,
Boys,67.13,DQ,Ram Carrera,Weslaco East,65.14,149.69,102.06,,,Unlimited,SBD,M,
Boys,74.84,1,Nick Guitron,Los Fresnos,70.85,254.01,158.76,258.55,671.32,Unlimited,SBD,M,
Boys,74.84,2,Julisses Garza,Harlingen,73.66,204.12,142.88,213.19,560.19,Unlimited,SBD,M,
Boys,74.84,3,Joey Arredondo,Brownsville Hanna,72.21,206.38,115.67,219.99,542.04,Unlimited,SBD,M,
Boys,74.84,4,Roel Zuniga,Brownsville Hanna,74.84,206.38,124.74,201.85,532.97,Unlimited,SBD,M,
Boys,74.84,5,Trey Lopez,Harlingen,73.84,192.78,149.69,188.24,530.7,Unlimited,SBD,M,
Boys,74.84,6,Jonathan Rodriguez,Brownsville Hanna,72.67,183.7,138.35,190.51,512.56,Unlimited,SBD,M,
Boys,74.84,7,Chris Gunoe,Brownsville Hanna,73.71,188.24,115.67,185.97,489.88,Unlimited,SBD,M,
Boys,74.84,8,Devon Burnias,Weslaco East,73.07,161.03,83.91,147.42,392.36,Unlimited,SBD,M,
Boys,74.84,9,Nicholas Perez,Harlingen,68.86,142.88,90.72,136.08,369.68,Unlimited,SBD,M,
Boys,74.84,10,Emmanuel Reyes,Harlingen,73.57,149.69,83.91,102.06,335.66,Unlimited,SBD,M,
Boys,82.1,1,Sean Torres,Los Fresnos,82.1,240.4,149.69,231.33,621.42,Unlimited,SBD,M,
Boys,82.1,2,Santiago Flores,Weslaco East,81.92,217.72,167.83,219.99,605.55,Unlimited,SBD,M,
Boys,82.1,3,Andre Melendez,Los Fresnos,76.2,219.99,149.69,224.53,594.21,Unlimited,SBD,M,
Boys,82.1,4,Noah Rosales,Weslaco East,79.88,195.04,142.88,195.04,532.97,Unlimited,SBD,M,
Boys,82.1,5,Daniel Padilla,Weslaco East,82.01,183.7,111.13,149.69,444.52,Unlimited,SBD,M,
Boys,82.1,DQ,Aiden O'Grady,Harlingen,76.29,124.74,,,,Unlimited,SBD,M,
Boys,89.81,1,Angel Briseno,Brownsville Veterans Memorial,89.58,272.16,174.63,263.08,709.87,Unlimited,SBD,M,
Boys,89.81,2,Tino Vela,Weslaco,85.77,242.67,174.63,233.6,650.91,Unlimited,SBD,M,
Boys,89.81,3,Juan Perez,Los Fresnos,88.72,240.4,147.42,231.33,619.15,Unlimited,SBD,M,
Boys,89.81,4,Jonah Garcia,Weslaco,87.54,181.44,113.4,158.76,453.59,Unlimited,SBD,M,
Boys,89.81,5,Brandon Obregon,Brownsville Hanna,89.81,163.29,95.25,181.44,439.98,Unlimited,SBD,M,
Boys,89.81,DQ,Cristian Platas,Brownsville Veterans Memorial,89.22,258.55,,,,Unlimited,SBD,M,
Boys,89.81,DQ,Samuel Gamboa,Harlingen,85.55,163.29,106.59,183.7,,Unlimited,SBD,M,
Boys,99.79,1,Jay-D Sanchez,Weslaco East,92.17,233.6,161.03,229.06,623.69,Unlimited,SBD,M,
Boys,99.79,2,Alonso Mireles,Brownsville Veterans Memorial,92.8,240.4,156.49,226.8,623.69,Unlimited,SBD,M,
Boys,99.79,3,Jared Vallego,Los Fresnos,96.66,233.6,163.29,222.26,619.15,Unlimited,SBD,M,
Boys,99.79,4,Jayden Garza,Weslaco East,91.72,167.83,127.01,176.9,471.74,Unlimited,SBD,M,
Boys,99.79,5,Isaias Serna,Weslaco East,92.17,190.51,117.93,147.42,455.86,Unlimited,SBD,M,
Boys,99.79,6,Casey Parker,Weslaco,95.07,151.95,113.4,156.49,421.84,Unlimited,SBD,M,
Boys,99.79,7,Abraham Areujo,Harlingen,94.39,151.95,113.4,120.2,385.55,Unlimited,SBD,M,
Boys,109.77,1,Daniel Rincon,Los Fresnos,108,260.82,190.51,224.53,675.85,Unlimited,SBD,M,
Boys,109.77,2,Lubin Garcia,Weslaco East,102.56,244.94,183.7,215.46,644.1,Unlimited,SBD,M,
Boys,109.77,3,Jacob Garcia,Weslaco,106.41,260.82,124.74,217.72,603.28,Unlimited,SBD,M,
Boys,109.77,4,Dominic Rincon,Weslaco East,100.7,217.72,179.17,197.31,594.21,Unlimited,SBD,M,
Boys,124.74,1,Jacob Zuniga,Weslaco East,120.25,208.65,156.49,174.63,539.77,Unlimited,SBD,M,
Boys,124.74,2,Adrian Nido,Weslaco,116.62,204.12,131.54,176.9,512.56,Unlimited,SBD,M,
Boys,124.74,3,Elifonso Jaramillo,Weslaco,121.15,161.03,133.81,142.88,437.72,Unlimited,SBD,M,
Boys,124.74,4,Jonathan Deras,Weslaco East,117.53,142.88,102.06,154.22,399.16,Unlimited,SBD,M,
Boys,139.71,1,Matthew Reyes,Weslaco,131.13,267.62,190.51,244.94,703.07,Unlimited,SBD,M,
Boys,139.71,2,Joe Barrera,Weslaco East,125.28,244.94,188.24,208.65,641.83,Unlimited,SBD,M,
Boys,139.71,3,Preston Garza,Weslaco,126.1,142.88,124.74,113.4,381.02,Unlimited,SBD,M,
Boys,139.71+,1,Israel Hernandez,Harlingen,152.91,142.88,142.88,165.56,451.32,Unlimited,SBD,M,
