Division,WeightClassKg,Place,Name,Team,BodyweightKg,Best3SquatKg,Best3BenchKg,Best3DeadliftKg,TotalKg,Equipment,Event,Sex,BirthDate
Boys,51.71,1,Xavier Ellis,Kress,49.35,131.54,81.65,161.03,374.21,Unlimited,SBD,M,
Boys,51.71,2,Nathan Rendon,Levelland,51.44,111.13,83.91,142.88,337.93,Unlimited,SBD,M,
Boys,51.71,3,Ethan Lozano,Levelland,50.8,111.13,65.77,131.54,308.44,Unlimited,SBD,M,
Boys,51.71,4,Rolando Rivera,Sundown,48.35,104.33,63.5,111.13,278.96,Unlimited,SBD,M,
Boys,51.71,5,Jose Chavez,Kermit,48.63,92.99,49.9,102.06,244.94,Unlimited,SBD,M,
Boys,55.79,1,Robert Noriega,Kress,55.52,163.29,102.06,195.04,460.4,Unlimited,SBD,M,
Boys,55.79,2,Michael Salazar,Sundown,55.34,158.76,102.06,183.7,444.52,Unlimited,SBD,M,
Boys,55.79,3,Fabian Viernes,Bovina,55.43,151.95,104.33,174.63,430.91,Unlimited,SBD,M,
Boys,55.79,4,Rj Lopez,Levelland,55.34,154.22,92.99,172.37,419.57,Unlimited,SBD,M,
Boys,55.79,5,Colin Davis,Kermit,55.52,142.88,77.11,165.56,385.55,Unlimited,SBD,M,
Boys,55.79,6,Zaden Carrillo,Levelland,55.34,106.59,65.77,147.42,319.78,Unlimited,SBD,M,
Boys,55.79,7,Trace Price,Post,52.53,120.2,61.23,124.74,306.17,Unlimited,SBD,M,
Boys,55.79,8,Isaac Vasquez,Brownfield,53.98,88.45,54.43,111.13,254.01,Unlimited,SBD,M,
Boys,55.79,9,Nicholas Amesquita,Seagraves,55.25,92.99,56.7,102.06,251.74,Unlimited,SBD,M,
Boys,55.79,10,Santiago Villa,Kress,55.61,70.31,45.36,113.4,229.06,Unlimited,SBD,M,
Boys,59.87,1,Ethan Martinez,Wolfforth Frenship,58.88,183.7,127.01,183.7,494.42,Unlimited,SBD,M,
Boys,59.87,2,Kason Amador,Kress,59.69,145.15,77.11,167.83,390.09,Unlimited,SBD,M,
Boys,59.87,3,Christian Zapata,Kress,59.15,142.88,74.84,158.76,376.48,Unlimited,SBD,M,
Boys,59.87,4,Jovany Salazar,Bovina,59.87,136.08,70.31,156.49,362.87,Unlimited,SBD,M,
Boys,59.87,5,Zeke Carrasco,Kermit,57.7,124.74,74.84,142.88,342.46,Unlimited,SBD,M,
Boys,59.87,6,Adrian Castillo,Kress,57.7,102.06,81.65,117.93,301.64,Unlimited,SBD,M,
Boys,67.13,1,Michael Garza,Wolfforth Frenship,66.77,174.63,133.81,206.38,514.83,Unlimited,SBD,M,
Boys,67.13,2,Jesus Montoya,Post,67.13,185.97,124.74,167.83,478.54,Unlimited,SBD,M,
Boys,67.13,3,Branson Sanders,Sundown,66.86,174.63,92.99,181.44,449.06,Unlimited,SBD,M,
Boys,67.13,4,Diego Cedillo,Kress,61.51,154.22,86.18,181.44,421.84,Unlimited,SBD,M,
Boys,67.13,5,Ian Vergara,Post,65.32,158.76,92.99,163.29,415.04,Unlimited,SBD,M,
Boys,67.13,6,Marcus Lares,Kermit,67.13,151.95,83.91,161.03,396.89,Unlimited,SBD,M,
Boys,67.13,7,Ryan Gamez,Brownfield,63.5,133.81,95.25,154.22,383.29,Unlimited,SBD,M,
Boys,67.13,8,Kaden Polanco,Kermit,64.86,142.88,72.57,154.22,369.68,Unlimited,SBD,M,
Boys,67.13,9,Isaac Rangel,Kermit,62.87,136.08,74.84,151.95,362.87,Unlimited,SBD,M,
Boys,67.13,10,Miguel Lopez,Bovina,65.05,124.74,90.72,140.61,356.07,Unlimited,SBD,M,
Boys,67.13,11,Calvin Carpenter,Lubbock All Saints School,60.15,117.93,77.11,147.42,342.46,Unlimited,SBD,M,
Boys,67.13,12,Hugo Rascon,Seagraves,63.87,124.74,72.57,140.61,337.93,Unlimited,SBD,M,
Boys,67.13,13,Jermaine Stotts,Wolfforth Frenship,63.41,120.2,68.04,147.42,335.66,Unlimited,SBD,M,
Boys,67.13,14,Tyler Lozano,Wolfforth Frenship,65.5,108.86,83.91,124.74,317.51,Unlimited,SBD,M,
Boys,67.13,15,Jesus Vargas,Levelland,60.33,108.86,61.23,113.4,283.5,Unlimited,SBD,M,
Boys,67.13,16,Robert Ramirez,Wellman-Union,64.68,72.57,61.23,102.06,235.87,Unlimited,SBD,M,
Boys,67.13,17,Alex Zapata,Levelland,65.59,61.23,56.7,92.99,210.92,Unlimited,SBD,M,
Boys,67.13,18,Corey Unger,Wellman-Union,60.24,74.84,65.77,45.36,185.97,Unlimited,SBD,M,
Boys,67.13,DQ,Ethan Winn,Wellman-Union,66.22,,,,,Unlimited,SBD,M,
Boys,67.13,DQ,Raymond Rodriguez,Seagraves,66.77,,,,,Unlimited,SBD,M,
Boys,67.13,DQ,Devion Ellis,Kress,64.68,,,,,Unlimited,SBD,M,
Boys,74.84,1,Michael Guzman,Kress,74.3,215.46,131.54,231.33,578.33,Unlimited,SBD,M,
Boys,74.84,2,Rickey Melendez,Sundown,72.39,226.8,138.35,195.04,560.19,Unlimited,SBD,M,
Boys,74.84,3,Gaviel Burrola,Kermit,73.57,204.12,106.59,199.58,510.29,Unlimited,SBD,M,
Boys,74.84,4,Jack Pollard,Wolfforth Frenship,74.03,165.56,92.99,183.7,442.25,Unlimited,SBD,M,
Boys,74.84,5,Zayden Flynn,Sundown,74.75,158.76,108.86,158.76,426.38,Unlimited,SBD,M,
Boys,74.84,6,Zane Hubbard,Sundown,67.68,158.76,77.11,176.9,412.77,Unlimited,SBD,M,
Boys,74.84,7,Ben Reynolds,Sundown,71.58,140.61,92.99,136.08,369.68,Unlimited,SBD,M,
Boys,74.84,8,Trevor Bridges,Sundown,69.76,124.74,83.91,154.22,362.87,Unlimited,SBD,M,
Boys,74.84,9,Alex Salinas,Levelland,74.66,127.01,83.91,142.88,353.8,Unlimited,SBD,M,
Boys,74.84,10,LaRon Hamilton,Seagraves,68.31,138.35,72.57,129.27,340.19,Unlimited,SBD,M,
Boys,74.84,11,Braden Conn,Brownfield,74.39,117.93,83.91,136.08,337.93,Unlimited,SBD,M,
Boys,74.84,12,Xane Garcia,Kress,70.13,113.4,63.5,156.49,333.39,Unlimited,SBD,M,
Boys,74.84,13,Branson Harris,Post,71.03,117.93,77.11,129.27,324.32,Unlimited,SBD,M,
Boys,82.1,1,Jaden Noriega,Kress,78.29,215.46,136.08,208.65,560.19,Unlimited,SBD,M,
Boys,82.1,2,Isiah Flores,Sundown,78.02,208.65,106.59,195.04,510.29,Unlimited,SBD,M,
Boys,82.1,3,Jc Camacho,Sundown,81.56,204.12,113.4,190.51,508.02,Unlimited,SBD,M,
Boys,82.1,4,Andrew Acevedo,Wolfforth Frenship,79.47,174.63,102.06,208.65,485.34,Unlimited,SBD,M,
Boys,82.1,5,Mauricio Perez,Kermit,76.66,181.44,102.06,181.44,464.93,Unlimited,SBD,M,
Boys,82.1,6,Christian Serna,Wolfforth Frenship,75.93,142.88,97.52,179.17,419.57,Unlimited,SBD,M,
Boys,82.1,7,Zach Long,Wolfforth Frenship,79.38,140.61,104.33,161.03,405.97,Unlimited,SBD,M,
Boys,82.1,8,Cayne Johnson,Brownfield,81.65,151.95,99.79,154.22,405.97,Unlimited,SBD,M,
Boys,82.1,9,Jackson Gibbs,Levelland,75.02,142.88,83.91,167.83,394.63,Unlimited,SBD,M,
Boys,82.1,10,Jack Corbin,Wolfforth Frenship,78.83,145.15,90.72,158.76,394.63,Unlimited,SBD,M,
Boys,82.1,11,Jose Salas,Bovina,82.1,142.88,65.77,156.49,365.14,Unlimited,SBD,M,
Boys,82.1,12,Avery Gutierrez,Wolfforth Frenship,81.19,129.27,74.84,149.69,353.8,Unlimited,SBD,M,
Boys,82.1,13,Merwan Abidi,Lubbock All Saints School,77.84,113.4,72.57,142.88,328.85,Unlimited,SBD,M,
Boys,82.1,DQ,Robert Pina,Levelland,77.47,158.76,99.79,,,Unlimited,SBD,M,
Boys,82.1,DQ,Gauge Casas,Bovina,77.38,,,,,Unlimited,SBD,M,
Boys,89.81,1,Austin Ferriera,Brownfield,89.81,222.26,158.76,192.78,573.79,Unlimited,SBD,M,
Boys,89.81,2,Brooks Burns,Lubbock All Saints School,84.1,170.1,99.79,192.78,462.66,Unlimited,SBD,M,
Boys,89.81,3,Landon Longoria,Seagraves,82.64,183.7,102.06,167.83,453.59,Unlimited,SBD,M,
Boys,89.81,4,Jadon McAdams,Sundown,88.54,165.56,115.67,165.56,446.79,Unlimited,SBD,M,
Boys,89.81,5,Stephen Jenkins,Brownfield,89.36,147.42,99.79,149.69,396.89,Unlimited,SBD,M,
Boys,89.81,6,Yandel Deleon,Bovina,84.91,154.22,70.31,163.29,387.82,Unlimited,SBD,M,
Boys,89.81,7,Jd O'Briant,Wellman-Union,83.37,145.15,81.65,156.49,383.29,Unlimited,SBD,M,
Boys,89.81,8,Danny Nguyen,Wolfforth Frenship,85.73,113.4,70.31,136.08,319.78,Unlimited,SBD,M,
Boys,99.79,1,Nate Gensler,Kermit,90.45,294.84,151.95,256.28,703.07,Unlimited,SBD,M,
Boys,99.79,2,Xavier Espinosa,Levelland,97.98,210.92,113.4,192.78,517.1,Unlimited,SBD,M,
Boys,99.79,3,Aiden Herrera,Levelland,91.99,192.78,129.27,181.44,503.49,Unlimited,SBD,M,
Boys,99.79,4,Saul Trevino,Wolfforth Frenship,96.52,165.56,113.4,217.72,496.68,Unlimited,SBD,M,
Boys,99.79,5,Landon Sehon,Sundown,96.25,174.63,111.13,154.22,439.98,Unlimited,SBD,M,
Boys,99.79,6,Jeremiah Lopez,Wolfforth Frenship,96.98,167.83,102.06,167.83,437.72,Unlimited,SBD,M,
Boys,99.79,7,Alexis Tarango,Bovina,97.98,161.03,83.91,183.7,428.64,Unlimited,SBD,M,
Boys,99.79,8,Sam Odom,Wolfforth Frenship,93.89,156.49,102.06,165.56,424.11,Unlimited,SBD,M,
Boys,99.79,9,Colten Watts,Wolfforth Frenship,99.25,165.56,90.72,158.76,415.04,Unlimited,SBD,M,
Boys,99.79,10,Christian Quintana,Sundown,97.89,165.56,102.06,142.88,410.5,Unlimited,SBD,M,
Boys,99.79,11,Zerach Garcia,Brownfield,91.17,136.08,79.38,170.1,385.55,Unlimited,SBD,M,
Boys,99.79,12,Paul Cody,Kress,96.71,129.27,79.38,161.03,369.68,Unlimited,SBD,M,
Boys,99.79,13,Lupe Holguin,Seagraves,98.7,124.74,90.72,154.22,369.68,Unlimited,SBD,M,
Boys,99.79,14,Jordan Burns,Kress,96.71,102.06,90.72,120.2,312.98,Unlimited,SBD,M,
Boys,99.79,DQ,Alejandro Martinez,Post,96.16,215.46,,,,Unlimited,SBD,M,
Boys,109.77,1,Xavyn Garcia,Sundown,106.78,249.48,145.15,181.44,576.06,Unlimited,SBD,M,
Boys,109.77,2,Jadon Rodriguez,Wolfforth Frenship,101.7,183.7,95.25,192.78,471.74,Unlimited,SBD,M,
Boys,109.77,3,Austin Reyes,Sundown,108.86,190.51,99.79,172.37,462.66,Unlimited,SBD,M,
Boys,109.77,4,Tobi Depoyster,Wellman-Union,106.32,158.76,108.86,165.56,433.18,Unlimited,SBD,M,
Boys,109.77,5,Jacob Lujan,Sundown,104.78,158.76,102.06,147.42,408.23,Unlimited,SBD,M,
Boys,109.77,6,Linito Mendoza,Wolfforth Frenship,105.87,142.88,111.13,142.88,396.89,Unlimited,SBD,M,
Boys,109.77,DQ,Orlando Hinojos,Sundown,103.6,204.12,,,,Unlimited,SBD,M,
Boys,109.77,DQ,Ayden Wisniewski,Lubbock All Saints School,108.41,170.1,106.59,,,Unlimited,SBD,M,
Boys,124.74,1,Dekota Golightly,Sundown,117.66,258.55,158.76,219.99,637.3,Unlimited,SBD,M,
Boys,124.74,2,Reynaldo Loredo,Wolfforth Frenship,116.39,233.6,161.03,238.14,632.76,Unlimited,SBD,M,
Boys,124.74,3,Logan Castaneda,Meadow,117.48,249.48,142.88,235.87,628.23,Unlimited,SBD,M,
Boys,124.74,4,Jeffery Rodriguez,Sundown,122.2,256.28,145.15,226.8,628.23,Unlimited,SBD,M,
Boys,124.74,5,Diego Juarez,Kermit,109.95,226.8,124.74,226.8,578.33,Unlimited,SBD,M,
Boys,124.74,6,Gabriel Perez,Post,124.01,213.19,117.93,192.78,523.9,Unlimited,SBD,M,
Boys,124.74,7,Ian Durham,Brownfield,120.2,176.9,129.27,176.9,483.08,Unlimited,SBD,M,
Boys,124.74,8,Diego Garza,Wolfforth Frenship,115.58,163.29,106.59,183.7,453.59,Unlimited,SBD,M,
Boys,124.74,9,Andrew Lira,Brownfield,116.12,145.15,104.33,185.97,435.45,Unlimited,SBD,M,
Boys,124.74,DQ,Chase Pickering,Levelland,114.31,,,,,Unlimited,SBD,M,
Boys,139.71,1,Blaize Whitaker,Wolfforth Frenship,134.9,222.26,145.15,242.67,610.08,Unlimited,SBD,M,
Boys,139.71,2,Josh Ortiz,Wolfforth Frenship,129.46,201.85,117.93,217.72,537.51,Unlimited,SBD,M,
Boys,139.71,3,Wyatt Edge,Wolfforth Frenship,138.98,224.53,124.74,181.44,530.7,Unlimited,SBD,M,
Boys,139.71+,1,Konar Alaman,Sundown,172,272.16,195.04,219.99,687.19,Unlimited,SBD,M,
Boys,139.71+,2,Jesús Rodríguez,Sundown,161.03,249.48,145.15,199.58,594.21,Unlimited,SBD,M,
Boys,139.71+,3,Pedro Loredo,Wolfforth Frenship,142.16,233.6,120.2,192.78,546.58,Unlimited,SBD,M,
